<svg width="16" height="18" viewBox="0 0 16 18" fill="none" xmlns="http://www.w3.org/2000/svg">
<g clip-path="url(#clip0_192_1155)">
<path d="M8 2.67041C9.32887 2.67041 10.6033 3.20392 11.543 4.15357C12.4826 5.10322 13.0105 6.39123 13.0105 7.73424V7.73424V14.2449H2.98947V7.73424C2.98947 6.39123 3.51736 5.10322 4.45702 4.15357C5.39668 3.20392 6.67112 2.67041 8 2.67041V2.67041Z" stroke="white" stroke-linecap="round" stroke-linejoin="round"/>
<path d="M1.55789 14.2446H14.4421" stroke="white" stroke-linecap="round" stroke-linejoin="round"/>
<path d="M3.34737 12.436H12.6526" stroke="white" stroke-width="0.5" stroke-linecap="round" stroke-linejoin="round"/>
<path d="M8 2.67044V1.22363" stroke="white" stroke-linecap="round" stroke-linejoin="round"/>
<path d="M10.1474 15.3296C10.1474 15.9052 9.92113 16.4572 9.51842 16.8642C9.11571 17.2712 8.56952 17.4998 8 17.4998C7.43048 17.4998 6.88429 17.2712 6.48158 16.8642C6.07887 16.4572 5.85263 15.9052 5.85263 15.3296" fill="white"/>
</g>
<defs>
<clipPath id="clip0_192_1155">
<rect width="14.3158" height="17" fill="white" transform="translate(0.842102 0.5)"/>
</clipPath>
</defs>
</svg>
