<svg width="360" height="26" viewBox="0 0 360 26" fill="none" xmlns="http://www.w3.org/2000/svg">
<rect width="360" height="26" fill="url(#paint0_linear_184_3103)"/>
<defs>
<linearGradient id="paint0_linear_184_3103" x1="180" y1="0" x2="180" y2="26" gradientUnits="userSpaceOnUse">
<stop stop-color="#EDF2F4"/>
<stop offset="1" stop-color="#EDF2F4" stop-opacity="0"/>
</linearGradient>
</defs>
</svg>
