<svg width="130" height="96" viewBox="0 0 130 96" fill="none" xmlns="http://www.w3.org/2000/svg">
<ellipse cx="65.4514" cy="82.9907" rx="64.5486" ry="13.0093" fill="#838383"/>
<g clip-path="url(#clip0_305_1579)">
<path d="M119.167 48.1099V50.497C119.127 51.8812 118.55 53.1951 117.559 54.1584C116.567 55.1218 115.24 55.6584 113.86 55.6538V71.6446C113.856 73.0583 113.294 74.4128 112.296 75.411C111.299 76.4092 109.948 76.9698 108.539 76.9698H39.4022C37.9948 76.9698 36.6451 76.4087 35.65 75.41C34.6548 74.4114 34.0957 73.0569 34.0957 71.6446V26.3656C34.0937 25.665 34.2294 24.9708 34.4952 24.323C34.761 23.6751 35.1514 23.0863 35.6444 22.5902C36.1373 22.0941 36.7232 21.7005 37.368 21.4319C38.0128 21.1633 38.704 21.0251 39.4022 21.0251H108.539C109.95 21.0251 111.304 21.5877 112.302 22.5893C113.3 23.5908 113.86 24.9492 113.86 26.3656V51.1244C116.681 50.2675 119.167 49.2116 119.167 48.1099Z" fill="#4CAB4A"/>
<path d="M119.167 47.6662V48.1099C119.167 49.2117 116.682 50.2675 113.861 51.1703V42.3104C114.56 42.3104 115.253 42.4491 115.898 42.7187C116.544 42.9882 117.13 43.3832 117.624 43.8809C118.117 44.3786 118.507 44.9693 118.772 45.6189C119.037 46.2685 119.171 46.9643 119.167 47.6662Z" fill="#20549E"/>
<path d="M73.711 44.8353C86.0654 44.8353 96.0805 34.7986 96.0805 22.4176C96.0805 10.0367 86.0654 0 73.711 0C61.3567 0 51.3416 10.0367 51.3416 22.4176C51.3416 34.7986 61.3567 44.8353 73.711 44.8353Z" fill="#FFC52E"/>
<path d="M73.711 39.0663C82.882 39.0663 90.3166 31.6124 90.3166 22.4176C90.3166 13.2227 82.882 5.76886 73.711 5.76886C64.54 5.76886 57.1055 13.2227 57.1055 22.4176C57.1055 31.6124 64.54 39.0663 73.711 39.0663Z" fill="#FDE994"/>
<path d="M74.7023 31.859C74.4888 31.6295 74.2602 31.4 74.0467 31.1552L72.3085 29.1046C71.7392 28.4314 71.1596 27.758 70.57 27.0848C69.9905 26.4115 69.3807 25.7535 68.786 25.0802L67.8557 24.0703C67.7644 23.9642 67.7157 23.8279 67.7187 23.6877V22.1575C67.7115 22.0914 67.7191 22.0246 67.7411 21.9618C67.763 21.8991 67.7988 21.8421 67.8457 21.7951C67.8925 21.7481 67.9492 21.7123 68.0117 21.6902C68.0742 21.6682 68.1406 21.6606 68.2064 21.6678H69.8839C70.6497 21.6828 71.4111 21.5477 72.1254 21.27C72.4881 21.1422 72.8206 20.9402 73.1015 20.6768C73.3823 20.4134 73.6055 20.0943 73.7571 19.7397L73.8486 19.4643H68.1763C67.856 19.4643 67.7187 19.3113 67.7187 18.99V17.7505C67.7187 17.3985 67.871 17.2455 68.2217 17.2455H73.7265C73.6467 17.0496 73.5273 16.8725 73.3758 16.7253C72.9539 16.3131 72.4259 16.0269 71.851 15.8989C71.2842 15.7816 70.7064 15.7252 70.1277 15.7306H68.4048C68.0236 15.7306 67.871 15.5776 67.871 15.1951V13.6648C67.871 13.2823 68.0084 13.1445 68.3896 13.1445H79.3073C79.6885 13.1445 79.8259 13.2823 79.8412 13.6648V14.7666C79.8412 15.1491 79.7038 15.2869 79.3073 15.2869H76.2576C76.2623 15.3327 76.2623 15.3787 76.2576 15.4245C76.6117 15.9194 76.8608 16.4819 76.9895 17.0772C76.9895 17.1996 77.066 17.2302 77.188 17.2302H79.2161C79.5973 17.2302 79.7343 17.3833 79.7343 17.7658V18.9287C79.7343 19.3112 79.5973 19.449 79.2161 19.449H77.249C77.127 19.449 77.0658 19.449 77.0353 19.6173C76.9175 20.3254 76.6468 20.9992 76.2424 21.5913C75.8633 22.1479 75.3757 22.6216 74.8091 22.9838C73.9236 23.5473 72.923 23.9029 71.8815 24.0243H71.7442C71.8047 24.0919 71.8609 24.1635 71.912 24.2386C72.6592 25.0802 73.4369 25.9066 74.1688 26.7635L76.0901 29.0435C76.6848 29.7474 77.2641 30.4665 77.8435 31.1704C77.8944 31.2201 77.9322 31.2817 77.9534 31.3496C77.9745 31.4176 77.9785 31.4898 77.9649 31.5597C77.9513 31.6295 77.9203 31.6949 77.8752 31.7498C77.8301 31.8048 77.7723 31.8475 77.7065 31.8743L74.7023 31.859Z" fill="#FFC52E"/>
<path d="M75.0987 39.0051C74.6413 39.0051 74.1839 39.0051 73.7112 39.0051C71.4913 39.0727 69.2805 38.6922 67.2098 37.8863C65.1391 37.0804 63.2507 35.8655 61.6566 34.3135C60.0624 32.7616 58.7948 30.9042 57.9293 28.8516C57.0639 26.799 56.6182 24.5929 56.6182 22.3641C56.6182 20.1352 57.0639 17.9291 57.9293 15.8764C58.7948 13.8238 60.0624 11.9664 61.6566 10.4145C63.2507 8.86255 65.1391 7.64759 67.2098 6.84169C69.2805 6.0358 71.4913 5.65542 73.7112 5.72298C74.1839 5.72298 74.6413 5.72298 75.0987 5.72298C70.96 6.08011 67.1054 7.98229 64.2967 11.0536C61.4881 14.1249 59.9299 18.1418 59.9299 22.3105C59.9299 26.4791 61.4881 30.496 64.2967 33.5673C67.1054 36.6386 70.96 38.5409 75.0987 38.898V39.0051Z" fill="#FFD763"/>
<path d="M39.4021 31.1704L97.8954 39.1582C98.5935 39.1561 99.285 39.2924 99.9306 39.5591C100.576 39.8258 101.163 40.2178 101.657 40.7125C102.152 41.2072 102.544 41.7948 102.812 42.4419C103.079 43.089 103.217 43.7827 103.217 44.4833V89.747C103.217 90.4476 103.079 91.1413 102.812 91.7884C102.544 92.4355 102.152 93.0232 101.657 93.5179C101.163 94.0126 100.576 94.4045 99.9306 94.6712C99.285 94.9379 98.5935 95.0742 97.8954 95.0722L39.4021 87.0845C37.9948 87.0845 36.6451 86.5234 35.65 85.5247C34.6548 84.5261 34.0957 83.1717 34.0957 81.7594V25.8453C34.0957 27.2576 34.6548 28.6121 35.65 29.6108C36.6451 30.6094 37.9948 31.1704 39.4021 31.1704Z" fill="#9BEC99"/>
<path d="M47.1944 88.2168L39.387 87.1456C37.9796 87.1456 36.63 86.5847 35.6348 85.586C34.6397 84.5874 34.0806 83.2328 34.0806 81.8205V25.8453C34.0806 27.2576 34.6397 28.6121 35.6348 29.6108C36.63 30.6094 37.9796 31.1704 39.387 31.1704L46.7216 32.1651V85.7226C46.7265 86.5759 46.8868 87.4212 47.1944 88.2168Z" fill="#9BEC99"/>
<path d="M91.2621 57.8115C92.0486 57.8145 92.8165 58.0513 93.469 58.492C94.1215 58.9327 94.6294 59.5575 94.9283 60.2875C95.2272 61.0176 95.3036 61.8202 95.1483 62.5939C94.993 63.3676 94.6129 64.0778 94.0557 64.6348C93.4985 65.1918 92.7894 65.5706 92.0178 65.7235C91.2462 65.8764 90.4469 65.7964 89.7205 65.4937C88.9942 65.1909 88.3732 64.679 87.9366 64.0226C87.4999 63.3661 87.2669 62.5946 87.2668 61.8053C87.2668 61.2796 87.3704 60.759 87.5714 60.2734C87.7723 59.7879 88.0668 59.3469 88.438 58.9759C88.8092 58.6048 89.2497 58.3109 89.7343 58.1111C90.2189 57.9113 90.7382 57.8095 91.2621 57.8115Z" fill="white"/>
<path d="M119.167 48.1099V50.497C119.167 54.7969 117.444 59.1887 113.86 60.979L105.886 63.6569C104.47 63.6569 103.113 63.0926 102.112 62.0882C101.111 61.0838 100.549 59.7216 100.549 58.3011C100.549 56.8807 101.111 55.5184 102.112 54.514C103.113 53.5096 104.47 52.9454 105.886 52.9454C105.886 52.9454 110.155 52.1802 113.86 51.0632C116.681 50.2675 119.167 49.2116 119.167 48.1099Z" fill="#459DD8"/>
<path d="M48.4291 75.1641H7.70044C7.00145 75.1641 6.43481 75.7327 6.43481 76.4341V86.5489C6.43481 87.2503 7.00145 87.8189 7.70044 87.8189H48.4291C49.128 87.8189 49.6947 87.2503 49.6947 86.5489V76.4341C49.6947 75.7327 49.128 75.1641 48.4291 75.1641Z" fill="#FFD763"/>
<path d="M45.9437 49.8544H5.21508C4.5161 49.8544 3.94946 50.423 3.94946 51.1244V61.2392C3.94946 61.9406 4.5161 62.5092 5.21508 62.5092H45.9437C46.6427 62.5092 47.2093 61.9406 47.2093 61.2392V51.1244C47.2093 50.423 46.6427 49.8544 45.9437 49.8544Z" fill="#FFD763"/>
<path d="M41.9942 62.5093H1.26562C0.566638 62.5093 0 63.0779 0 63.7794V73.8941C0 74.5955 0.566638 75.1641 1.26562 75.1641H41.9942C42.6932 75.1641 43.2599 74.5955 43.2599 73.8941V63.7794C43.2599 63.0779 42.6932 62.5093 41.9942 62.5093Z" fill="#FDE994"/>
</g>
<defs>
<clipPath id="clip0_305_1579">
<rect width="119.167" height="95.1028" fill="white"/>
</clipPath>
</defs>
</svg>
