<svg width="30" height="30" viewBox="0 0 30 30" fill="none" xmlns="http://www.w3.org/2000/svg">
<path d="M17.7332 12.8682C16.4492 12.8682 15.8758 13.5739 15.555 14.0693V13.0398H13.137C13.1684 13.7213 13.137 20.315 13.137 20.315H15.555V16.2505C15.555 16.0336 15.5689 15.8155 15.6341 15.6602C15.8094 15.2252 16.2069 14.775 16.8752 14.775C17.7501 14.775 18.0999 15.4421 18.0999 16.4209V20.3132H20.5179H20.5185V16.1411C20.5173 13.908 19.324 12.8682 17.7332 12.8682ZM15.5532 14.0947H15.5381C15.5429 14.0862 15.5502 14.0784 15.5532 14.0699V14.0947Z" fill="#0071BC"/>
<path d="M11.7982 13.0402H9.38013V20.3154H11.7982V13.0402Z" fill="#0071BC"/>
<path d="M15 0C6.72903 0 0 6.72903 0 15C0 23.2704 6.72903 30 15 30C23.2704 30 30 23.2704 30 15C30 6.72903 23.2716 0 15 0ZM22.9544 21.7846C22.9544 22.4227 22.4251 22.9387 21.7707 22.9387H8.12716C7.47462 22.9387 6.94474 22.4227 6.94474 21.7846V7.98216C6.94474 7.34472 7.47462 6.82812 8.12716 6.82812H21.7707C22.4245 6.82812 22.9544 7.34532 22.9544 7.98216V21.7846Z" fill="#0071BC"/>
<path d="M10.605 9.53272C9.77843 9.53272 9.23706 10.0753 9.23706 10.7895C9.23706 11.4873 9.76211 12.0462 10.573 12.0462H10.5887C11.4321 12.0462 11.9572 11.4873 11.9572 10.7895C11.9409 10.0759 11.4327 9.53272 10.605 9.53272Z" fill="#0071BC"/>
</svg>
