<svg width="40" height="40" viewBox="0 0 40 40" fill="none" xmlns="http://www.w3.org/2000/svg">
<g clip-path="url(#clip0)">
<path d="M20.1746 34.6097C20.8557 34.6097 21.4078 34.0576 21.4078 33.3765C21.4078 32.6954 20.8557 32.1433 20.1746 32.1433C19.4935 32.1433 18.9414 32.6954 18.9414 33.3765C18.9414 34.0576 19.4935 34.6097 20.1746 34.6097Z" fill="#7FDBD5"/>
<path d="M25.3414 35.9655C25.9895 35.9655 26.5148 35.4402 26.5148 34.7921C26.5148 34.144 25.9895 33.6187 25.3414 33.6187C24.6933 33.6187 24.168 34.144 24.168 34.7921C24.168 35.4402 24.6933 35.9655 25.3414 35.9655Z" fill="#38648C"/>
<path d="M21.7027 29.1728C22.3508 29.1728 22.8762 28.6474 22.8762 27.9994C22.8762 27.3513 22.3508 26.8259 21.7027 26.8259C21.0547 26.8259 20.5293 27.3513 20.5293 27.9994C20.5293 28.6474 21.0547 29.1728 21.7027 29.1728Z" fill="#38648C"/>
<path d="M26.2289 31.6673C27.0457 31.6673 27.7078 31.0052 27.7078 30.1884C27.7078 29.3716 27.0457 28.7095 26.2289 28.7095C25.4121 28.7095 24.75 29.3716 24.75 30.1884C24.75 31.0052 25.4121 31.6673 26.2289 31.6673Z" fill="#7FDBD5"/>
<path d="M21.7025 40.0001C22.5775 40.0001 23.2868 39.2908 23.2868 38.4158C23.2868 37.5409 22.5775 36.8315 21.7025 36.8315C20.8275 36.8315 20.1182 37.5409 20.1182 38.4158C20.1182 39.2908 20.8275 40.0001 21.7025 40.0001Z" fill="#F28B74"/>
<path d="M15.1769 6.56641L9.80957 11.3461L16.6093 18.9817L21.9766 14.202C24.0851 12.3244 24.2723 9.0929 22.3946 6.98438C20.5169 4.87586 17.2854 4.68875 15.1769 6.56641Z" fill="#7FDBD5"/>
<path d="M4.44193 16.1259L9.80928 11.3462L16.609 18.9818L11.2416 23.7615C9.13311 25.6392 5.9017 25.4521 4.02396 23.3436C2.14622 21.235 2.33341 18.0035 4.44193 16.1259Z" fill="#287D99"/>
<path opacity="0.1" d="M22.3941 6.98469C21.3303 5.79008 19.8319 5.21289 18.3494 5.27789C17.9301 6.64461 18.0818 8.17836 18.8983 9.48633L20.5909 12.1977C20.8827 12.6651 20.7869 13.2769 20.3641 13.6302C17.197 16.2765 13.1465 19.1323 11.0279 20.0003C7.7881 21.3276 4.95747 17.9693 5.41442 15.2601L4.49872 16.0755C2.40051 17.944 2.13785 21.1706 3.97903 23.2928C5.84973 25.4493 9.11607 25.6545 11.2415 23.7618L21.9762 14.2024C24.0847 12.3247 24.2718 9.09321 22.3941 6.98469Z" fill="#0043E0"/>
<path d="M20.209 7.82012L24.015 13.9167L32.688 8.50223L28.882 2.40566C27.3869 0.010652 24.2333 -0.718802 21.8383 0.776357C19.4433 2.27152 18.7138 5.42512 20.209 7.82012Z" fill="#76B7EB"/>
<path d="M27.8216 20.0137L24.0156 13.9171L32.6887 8.50269L36.4947 14.5993C37.9899 16.9943 37.2604 20.1479 34.8654 21.643C32.4704 23.1382 29.3168 22.4087 27.8216 20.0137Z" fill="#D1EFF2"/>
<path opacity="0.1" d="M34.8648 21.6427C35.0949 21.4991 35.3093 21.3398 35.5082 21.1677C29.4307 20.2745 21.5079 5.76653 21.8649 0.760742C21.8561 0.766133 21.8471 0.770977 21.8383 0.776445C19.4433 2.2716 18.7138 5.4252 20.209 7.82021L27.8209 20.0134C29.3162 22.4084 32.4698 23.1379 34.8648 21.6427Z" fill="black"/>
<path d="M13.1318 27.8305L19.3561 30.4087C19.5857 30.5038 19.8489 30.3948 19.9439 30.1652L23.5123 21.5504C23.6074 21.3208 23.4984 21.0577 23.2688 20.9626L17.0445 18.3844C14.436 17.3039 11.4456 18.5426 10.3651 21.1511C9.28461 23.7596 10.5234 26.75 13.1318 27.8305Z" fill="#F28B74"/>
<path opacity="0.1" d="M19.9439 30.1649L20.8228 28.0433C13.4713 26.6442 11.0029 22.2995 11.5782 19.3906C11.0692 19.8707 10.6502 20.4625 10.3651 21.1508C9.28463 23.7592 10.5233 26.7497 13.1318 27.8302L19.3561 30.4084C19.5857 30.5035 19.8488 30.3945 19.9439 30.1649Z" fill="black"/>
<path d="M33.9715 27.8305L27.7472 30.4087C27.5177 30.5038 27.2544 30.3948 27.1594 30.1652L23.591 21.5504C23.4959 21.3208 23.6049 21.0577 23.8345 20.9626L30.0588 18.3844C32.6673 17.3039 35.6577 18.5426 36.7382 21.1511C37.8186 23.7596 36.5799 26.75 33.9715 27.8305Z" fill="#76B7EB"/>
</g>
<defs>
<clipPath id="clip0">
<rect width="40" height="40" fill="white"/>
</clipPath>
</defs>
</svg>
