<svg width="40" height="40" viewBox="0 0 40 40" fill="none" xmlns="http://www.w3.org/2000/svg">
<path d="M5.13574 12.1594L35.7823 6.22984L39.177 23.7749L8.53041 29.7045L5.13574 12.1594Z" fill="#017A54"/>
<path d="M36.0696 24.3742L39.1671 23.7751L35.7746 6.2334L5.13379 12.1584L5.33046 13.1751L34.5863 10.1284L36.0696 24.3742Z" fill="#017A54"/>
<path d="M36.0692 24.3743L34.5859 10.1284L5.33008 13.1751L8.52591 29.7001L36.0692 24.3743Z" fill="#016F4E"/>
<path d="M2.81055 14.2788L33.8628 11.0331L35.721 28.8105L4.66868 32.0561L2.81055 14.2788Z" fill="#019F74"/>
<path d="M32.8748 29.1075V15.0667H2.88477L4.65227 32.0458L32.8748 29.1075Z" fill="#018C6A"/>
<path d="M0.833008 15.8999H32.0413V33.7666H0.833008V15.8999Z" fill="#4FD79C"/>
<path d="M29.1666 28.7316C28.503 28.7332 27.8672 28.9979 27.3985 29.4676C26.9298 29.9374 26.6666 30.5739 26.6666 31.2374H6.21077C6.21077 30.9083 6.14593 30.5824 6.01994 30.2783C5.89396 29.9742 5.70931 29.698 5.47653 29.4653C5.24376 29.2326 4.96742 29.048 4.6633 28.9221C4.35918 28.7962 4.03324 28.7315 3.7041 28.7316V20.9324C4.03328 20.9324 4.35924 20.8676 4.66336 20.7416C4.96748 20.6157 5.24382 20.431 5.47658 20.1983C5.70935 19.9655 5.89399 19.6892 6.01996 19.385C6.14593 19.0809 6.21077 18.755 6.21077 18.4258H26.6666C26.6664 19.0895 26.9295 19.7262 27.3982 20.1962C27.8669 20.6661 28.5029 20.9309 29.1666 20.9324V28.7316Z" fill="#7CF4A7"/>
<path d="M16.4368 28.5915C18.5133 28.5915 20.1968 26.9081 20.1968 24.8315C20.1968 22.7549 18.5133 21.0715 16.4368 21.0715C14.3602 21.0715 12.6768 22.7549 12.6768 24.8315C12.6768 26.9081 14.3602 28.5915 16.4368 28.5915Z" fill="#4FD79C"/>
</svg>
