<svg width="60" height="34" viewBox="0 0 60 34" fill="none" xmlns="http://www.w3.org/2000/svg">
<line y1="16.5" x2="60" y2="16.5" stroke="#DBDBDB"/>
<circle cx="30" cy="17" r="16.5" fill="white" stroke="#DBDBDB"/>
<path d="M30.1758 17.7051C30.1758 19.0996 29.8262 20.1836 29.127 20.957C28.4316 21.7305 27.4453 22.1172 26.168 22.1172C24.875 22.1172 23.8809 21.7344 23.1855 20.9688C22.4941 20.1992 22.1484 19.1074 22.1484 17.6934C22.1484 16.2793 22.4961 15.1934 23.1914 14.4355C23.8906 13.6777 24.8867 13.2988 26.1797 13.2988C27.4531 13.2988 28.4375 13.6836 29.1328 14.4531C29.8281 15.2227 30.1758 16.3066 30.1758 17.7051ZM23.6367 17.7051C23.6367 18.7598 23.8496 19.5605 24.2754 20.1074C24.7012 20.6504 25.332 20.9219 26.168 20.9219C27 20.9219 27.627 20.6523 28.0488 20.1133C28.4746 19.5742 28.6875 18.7715 28.6875 17.7051C28.6875 16.6543 28.4766 15.8574 28.0547 15.3145C27.6367 14.7715 27.0117 14.5 26.1797 14.5C25.3398 14.5 24.7051 14.7715 24.2754 15.3145C23.8496 15.8574 23.6367 16.6543 23.6367 17.7051ZM33.416 17.418H34.3887C35.041 17.418 35.5137 17.2969 35.8066 17.0547C36.0996 16.8125 36.2461 16.4531 36.2461 15.9766C36.2461 15.4922 36.0879 15.1445 35.7715 14.9336C35.4551 14.7227 34.9785 14.6172 34.3418 14.6172H33.416V17.418ZM33.416 18.5781V22H32.0156V13.4336H34.4355C35.541 13.4336 36.3594 13.6406 36.8906 14.0547C37.4219 14.4688 37.6875 15.0938 37.6875 15.9297C37.6875 16.9961 37.1328 17.7559 36.0234 18.209L38.4434 22H36.8496L34.7988 18.5781H33.416Z" fill="#C4C4C4"/>
</svg>
