<svg width="121" height="30" viewBox="0 0 121 30" fill="none" xmlns="http://www.w3.org/2000/svg">
<path d="M30.877 19.3627V10.4067H29.1472V8.06269H30.877V4.40918H33.512V8.06269H35.2418V10.4067H33.512V19.3627H30.877Z" fill="#0071BC"/>
<path d="M41.7729 10.3581C40.7544 10.4389 40.0431 10.7138 39.639 11.1664C39.2348 11.619 39.0408 12.4273 39.0408 13.6075V19.3625H36.4058V8.06254H38.8792V9.37198C39.2833 8.87084 39.7036 8.49902 40.1886 8.25653C40.6574 8.01404 41.1909 7.90088 41.789 7.90088V10.3581H41.7729Z" fill="#0071BC"/>
<path d="M50.5672 19.3625V18.1339C50.1792 18.6513 49.7427 19.0231 49.2416 19.2817C48.7404 19.5242 48.1746 19.6535 47.5442 19.6535C46.1216 19.6535 45.0384 19.2171 44.2786 18.3441C43.5188 17.4711 43.1309 16.2264 43.1309 14.5936V8.04639H45.7982V13.1225C45.7982 14.6421 45.9761 15.6929 46.3156 16.2587C46.6712 16.8245 47.2693 17.0993 48.1261 17.0993C48.9991 17.0993 49.6296 16.7922 50.0176 16.1617C50.4055 15.5312 50.5834 14.4643 50.5834 12.9608V8.06255H53.1699V19.3625H50.5672Z" fill="#0071BC"/>
<path d="M57.5347 14.5452C57.6317 15.3535 57.955 16.0001 58.5047 16.4689C59.0705 16.9377 59.7818 17.1802 60.6709 17.1802C61.2529 17.1802 61.7864 17.0509 62.2552 16.8084C62.724 16.5659 63.0958 16.2103 63.3706 15.7738H66.1997C65.7147 17.0024 65.0034 17.9562 64.0496 18.6513C63.0958 19.3303 61.9965 19.6698 60.7356 19.6698C59.895 19.6698 59.119 19.5243 58.4077 19.2171C57.6964 18.9261 57.0659 18.4735 56.5001 17.8915C55.9666 17.3419 55.5463 16.6952 55.2553 15.9678C54.9643 15.2403 54.8188 14.4967 54.8188 13.7207C54.8188 12.9286 54.9482 12.1849 55.223 11.4898C55.4978 10.7947 55.8858 10.1642 56.4193 9.61456C57.0013 9.00026 57.6479 8.53144 58.3754 8.20812C59.1028 7.8848 59.8465 7.72314 60.6224 7.72314C61.6086 7.72314 62.5138 7.94947 63.3706 8.38595C64.2274 8.8386 64.9388 9.4529 65.5369 10.2612C65.8925 10.7462 66.1674 11.2958 66.3452 11.894C66.523 12.4921 66.6038 13.1872 66.6038 13.9632C66.6038 14.0279 66.6038 14.1249 66.5877 14.238C66.5877 14.3673 66.5715 14.4643 66.5715 14.5128H57.5347V14.5452ZM63.7748 12.4598C63.5485 11.7 63.1767 11.1342 62.6432 10.7462C62.1097 10.3582 61.4469 10.148 60.6386 10.148C59.9435 10.148 59.313 10.3582 58.7633 10.7785C58.2137 11.1988 57.8419 11.7646 57.6479 12.4598H63.7748Z" fill="#0071BC"/>
<path d="M70.823 8.0628V9.33991C71.211 8.8226 71.6474 8.45078 72.1486 8.19213C72.6497 7.94964 73.2155 7.82031 73.846 7.82031C74.7513 7.82031 75.5434 7.98197 76.1901 8.30529C76.8367 8.62861 77.3863 9.12975 77.8552 9.80872C78.3078 9.12975 78.7928 8.64478 79.3586 8.30529C79.9082 7.98197 80.5225 7.82031 81.2015 7.82031C82.5918 7.82031 83.6426 8.25679 84.3862 9.12975C85.1298 10.0027 85.5016 11.2475 85.5016 12.8641V19.3628H82.9151V14.3514C82.9151 12.8156 82.7534 11.781 82.414 11.2152C82.0745 10.6655 81.4925 10.3907 80.6519 10.3907C79.7789 10.3907 79.1646 10.6978 78.7928 11.3283C78.421 11.9426 78.227 13.0096 78.227 14.513V19.3628H75.6243V14.3514C75.6243 12.8318 75.4464 11.781 75.1069 11.2313C74.7675 10.6817 74.1532 10.4069 73.2964 10.4069C72.4234 10.4069 71.7929 10.714 71.4049 11.3445C71.017 11.9588 70.823 13.0257 70.823 14.5292V19.3628H68.2849V8.0628H70.823Z" fill="#22B573"/>
<path d="M89.8179 14.5452C89.9149 15.3535 90.2382 16.0001 90.7879 16.4689C91.3537 16.9377 92.065 17.1802 92.9541 17.1802C93.5361 17.1802 94.0695 17.0509 94.5384 16.8084C95.0072 16.5659 95.379 16.2103 95.6538 15.7738H98.4828C97.9978 17.0024 97.2865 17.9562 96.3328 18.6513C95.379 19.3303 94.2797 19.6698 93.0188 19.6698C92.1781 19.6698 91.4022 19.5243 90.6909 19.2171C89.9796 18.9261 89.3491 18.4735 88.7833 17.8915C88.2498 17.3419 87.8295 16.6952 87.5385 15.9678C87.2475 15.2403 87.1021 14.4967 87.1021 13.7207C87.1021 12.9286 87.2314 12.1849 87.5062 11.4898C87.781 10.7947 88.169 10.1642 88.7025 9.61456C89.2844 9.00026 89.9311 8.53144 90.6585 8.20812C91.386 7.8848 92.1296 7.72314 92.9056 7.72314C93.8917 7.72314 94.797 7.94947 95.6538 8.38595C96.5106 8.8386 97.2219 9.4529 97.82 10.2612C98.1757 10.7462 98.4505 11.2958 98.6283 11.894C98.8061 12.4921 98.887 13.1872 98.887 13.9632C98.887 14.0279 98.887 14.1249 98.8708 14.238C98.8708 14.3673 98.8546 14.4643 98.8546 14.5128H89.8179V14.5452ZM96.0579 12.4598C95.8316 11.7 95.4598 11.1342 94.9263 10.7462C94.3929 10.3582 93.7301 10.148 92.9218 10.148C92.2266 10.148 91.5962 10.3582 91.0465 10.7785C90.4969 11.1988 90.1251 11.7646 89.9311 12.4598H96.0579Z" fill="#22B573"/>
<path d="M109.298 8.96798V4.40918H111.884V19.3627H109.298V18.4412C108.781 18.8454 108.231 19.1525 107.649 19.3627C107.067 19.5567 106.453 19.6698 105.774 19.6698C105.062 19.6698 104.383 19.5567 103.753 19.3303C103.122 19.104 102.557 18.7807 102.056 18.3442C101.377 17.7623 100.843 17.0509 100.471 16.2588C100.099 15.4505 99.9216 14.5937 99.9216 13.6884C99.9216 12.8478 100.083 12.0557 100.423 11.2797C100.762 10.5199 101.247 9.84094 101.862 9.2913C102.379 8.80632 102.961 8.4345 103.624 8.17584C104.286 7.91719 104.998 7.78786 105.758 7.78786C106.485 7.78786 107.132 7.88486 107.681 8.06268C108.279 8.27284 108.813 8.56383 109.298 8.96798ZM109.185 13.7693C109.185 12.7993 108.878 11.991 108.263 11.3605C107.649 10.7139 106.889 10.3906 105.968 10.3906C105.062 10.3906 104.286 10.7139 103.656 11.3767C103.009 12.0395 102.702 12.8155 102.702 13.7369C102.702 14.6907 103.025 15.4829 103.672 16.1133C104.319 16.7438 105.127 17.0671 106.113 17.0671C106.97 17.0671 107.714 16.7438 108.312 16.1133C108.894 15.4505 109.185 14.6746 109.185 13.7693Z" fill="#22B573"/>
<path d="M115.78 15.6124V15.7741C115.78 16.2752 115.91 16.6794 116.168 16.9865C116.427 17.2937 116.75 17.4553 117.155 17.4553C117.543 17.4553 117.85 17.3422 118.092 17.0997C118.335 16.8734 118.464 16.5662 118.464 16.2105C118.464 15.8711 118.367 15.5962 118.189 15.3861C118.011 15.1759 117.688 14.9496 117.235 14.7394C116.977 14.6263 116.589 14.4646 116.088 14.2545C115.587 14.0443 115.263 13.8826 115.118 13.7695C114.697 13.43 114.39 13.042 114.196 12.6217C114.002 12.2014 113.905 11.7164 113.905 11.1829C113.905 10.2291 114.245 9.42085 114.908 8.77421C115.57 8.11141 116.379 7.78809 117.332 7.78809C118.335 7.78809 119.143 8.07907 119.725 8.66105C120.307 9.24302 120.63 10.0513 120.679 11.1021H118.319V11.0374C118.319 10.6818 118.222 10.3908 118.044 10.1806C117.85 9.97049 117.591 9.87349 117.252 9.87349C116.961 9.87349 116.718 9.97049 116.524 10.1806C116.33 10.3908 116.233 10.6333 116.233 10.9404C116.233 11.4416 116.734 11.8942 117.753 12.3146C118.028 12.4277 118.222 12.5085 118.367 12.5732C119.337 13.0097 120 13.4785 120.355 13.9796C120.711 14.4808 120.889 15.1598 120.889 16.0166C120.889 17.0673 120.533 17.9403 119.822 18.6354C119.111 19.3306 118.205 19.6701 117.122 19.6701C116.039 19.6701 115.15 19.3144 114.487 18.5869C113.824 17.8595 113.453 16.8734 113.388 15.6447L115.78 15.6124Z" fill="#22B573"/>
<path d="M31.5882 25.5387H31.3296V23.2269H30.8123V22.9683H32.0894V23.2269H31.5721V25.5387H31.5882Z" fill="black"/>
<path d="M34.013 23.2269V25.5387H33.7705V22.9683H34.4656C34.6273 22.9683 34.7405 22.9844 34.8375 23.0006C34.9345 23.0168 35.0153 23.0653 35.0799 23.1138C35.1769 23.1784 35.2578 23.2754 35.3224 23.4047C35.3871 23.5179 35.4194 23.6472 35.4194 23.7927C35.4194 23.9867 35.3548 24.1645 35.2416 24.31C35.1769 24.3909 35.1123 24.4394 35.0476 24.4879C34.9668 24.5364 34.886 24.5525 34.8051 24.5525L35.4194 25.5548H35.1123L34.3525 24.31H34.595C34.7566 24.31 34.886 24.2615 34.983 24.1645C35.0799 24.0676 35.1284 23.9544 35.1284 23.7927C35.1284 23.7119 35.1123 23.6311 35.0799 23.5502C35.0476 23.4694 34.9991 23.4047 34.9345 23.3562C34.886 23.3078 34.8213 23.2754 34.7566 23.2592C34.692 23.2431 34.5626 23.2269 34.3848 23.2269H34.013Z" fill="black"/>
<path d="M37.2139 22.9678H37.4725V24.5844C37.4725 24.7137 37.4725 24.8107 37.4887 24.8592C37.4887 24.8916 37.5049 24.9239 37.5049 24.9401C37.5049 24.9724 37.521 24.9886 37.5372 25.0209C37.5857 25.1179 37.6503 25.1987 37.7312 25.2472C37.812 25.2957 37.9252 25.3281 38.0383 25.3281C38.2323 25.3281 38.3778 25.2634 38.4748 25.1341C38.5718 25.0047 38.6203 24.7946 38.6203 24.5198V22.9517H38.8628V24.5844C38.8628 24.9077 38.7981 25.1664 38.6688 25.3281C38.5395 25.4897 38.3293 25.5705 38.0707 25.5705C37.7797 25.5705 37.5695 25.4897 37.4402 25.3281C37.3109 25.1664 37.23 24.9239 37.23 24.5844V22.9678H37.2139Z" fill="black"/>
<path d="M40.9806 24.1156H42.0637V24.3743H40.9806V25.2795H42.0637V25.522H40.7219V22.9517H42.0475V23.2103H40.9644V24.1156H40.9806Z" fill="black"/>
<path d="M46.4609 25.5387V22.9683H46.8328L47.7219 25.1992L48.611 22.9683H48.9828V25.5387H48.7403V23.2754L47.835 25.5387H47.6087L46.7034 23.2754V25.5387H46.4609Z" fill="black"/>
<path d="M51.1168 24.1156H52.1999V24.3743H51.1168V25.2795H52.1999V25.522H50.8743V22.9517H52.1999V23.2103H51.1168V24.1156Z" fill="black"/>
<path d="M54.1235 22.9683H54.851C54.948 22.9683 55.045 22.9683 55.1258 22.9844C55.2067 23.0006 55.2875 23.0168 55.3521 23.0329C55.4815 23.0653 55.6108 23.1299 55.7078 23.2269C55.8533 23.3563 55.9664 23.5017 56.0473 23.6796C56.1281 23.8574 56.1766 24.0514 56.1766 24.2454C56.1766 24.4717 56.1281 24.6819 56.0473 24.8597C55.9664 25.0375 55.8371 25.1992 55.6755 25.3123C55.5623 25.3932 55.4491 25.4417 55.3198 25.474C55.1905 25.5063 54.9965 25.5225 54.7378 25.5225H54.1235V22.9683ZM54.366 23.2108V25.2962H54.8833C55.2067 25.2962 55.4653 25.1992 55.6431 25.0213C55.821 24.8435 55.9018 24.5849 55.9018 24.2454C55.9018 24.0837 55.8695 23.9221 55.8048 23.7766C55.7401 23.6311 55.6593 23.5179 55.5461 23.4209C55.4653 23.3562 55.3683 23.2916 55.2713 23.2592C55.1743 23.2269 55.0127 23.2108 54.8187 23.2108H54.366Z" fill="black"/>
<path d="M58.2135 25.5387H57.9548V22.9683H58.2135V25.5387Z" fill="black"/>
<path d="M62.1904 23.6308C62.0772 23.4691 61.9479 23.356 61.8024 23.2751C61.6569 23.1943 61.4952 23.162 61.3174 23.162C61.0264 23.162 60.7839 23.2751 60.5899 23.4853C60.3798 23.6954 60.2828 23.9541 60.2828 24.2451C60.2828 24.5522 60.3798 24.8109 60.5899 25.0211C60.7839 25.2312 61.0426 25.3444 61.3174 25.3444C61.4952 25.3444 61.6569 25.312 61.8024 25.2312C61.9479 25.1504 62.0772 25.0534 62.1742 24.9079H62.4813C62.3682 25.1342 62.2065 25.2959 62.0125 25.409C61.8185 25.5222 61.5922 25.5869 61.3497 25.5869C60.9779 25.5869 60.6546 25.4575 60.4121 25.1989C60.1534 24.9402 60.0403 24.6169 60.0403 24.2289C60.0403 24.0511 60.0726 23.8733 60.1373 23.7116C60.2019 23.55 60.2989 23.4045 60.4444 23.2751C60.5576 23.162 60.7031 23.065 60.8486 23.0003C60.9941 22.9356 61.1719 22.9033 61.3497 22.9033C61.6084 22.9033 61.8347 22.968 62.0449 23.0811C62.255 23.2105 62.4167 23.3883 62.5298 23.6146H62.1904V23.6308Z" fill="black"/>
<path d="M64.5507 25.5387H64.292V22.9683H64.5507V25.5387Z" fill="black"/>
<path d="M68.1719 25.2315L68.1395 22.9683H68.382V25.5387H68.0749L66.6684 23.2754L66.7007 25.5387H66.4583V22.9683H66.7654L68.1719 25.2315Z" fill="black"/>
<path d="M70.5643 24.1156H71.6474V24.3743H70.5643V25.2795H71.6474V25.522H70.3218V22.9517H71.6474V23.2103H70.5643V24.1156Z" fill="black"/>
<path d="M73.4419 24.8108H73.6844C73.6844 24.8916 73.7005 24.9563 73.7167 25.021C73.7329 25.0856 73.7652 25.1341 73.8137 25.1826C73.8945 25.2796 74.0077 25.3281 74.1532 25.3281C74.2987 25.3281 74.4119 25.2796 74.5089 25.1826C74.6059 25.0856 74.6382 24.9563 74.6382 24.8108C74.6382 24.5845 74.4604 24.4067 74.1047 24.2773L74.04 24.2612C73.846 24.1965 73.7167 24.1157 73.6359 24.0187C73.5551 23.9217 73.5066 23.7923 73.5066 23.6307C73.5066 23.4205 73.5712 23.2589 73.7006 23.1295C73.8299 23.0002 73.9915 22.9355 74.2017 22.9355C74.3957 22.9355 74.5412 23.0002 74.6544 23.1134C74.719 23.178 74.7514 23.2427 74.7999 23.3397C74.8322 23.4205 74.8483 23.5175 74.8483 23.6145H74.6059C74.5897 23.469 74.5574 23.372 74.4765 23.2912C74.3957 23.2104 74.3149 23.178 74.1855 23.178C74.0562 23.178 73.9592 23.2265 73.8784 23.3074C73.7975 23.3882 73.7652 23.5014 73.7652 23.6307C73.7652 23.6954 73.7814 23.76 73.7975 23.8085C73.8137 23.857 73.8622 23.9055 73.9107 23.9378C73.9592 23.9702 74.0724 24.0187 74.2179 24.0672L74.4119 24.1318C74.5735 24.1965 74.7029 24.2773 74.7675 24.3743C74.8322 24.4713 74.8807 24.6006 74.8807 24.7785C74.8807 25.021 74.816 25.2311 74.6705 25.3766C74.525 25.5221 74.3472 25.6029 74.137 25.6029C73.9269 25.6029 73.7652 25.5383 73.6359 25.3928C73.5712 25.3119 73.5227 25.2311 73.4904 25.1341C73.4581 25.021 73.4419 24.924 73.4419 24.8108Z" fill="black"/>
<path d="M79.0838 25.5387H78.8252L79.8275 22.9683H80.1346L81.1207 25.5387H80.8459L80.5388 24.7304H79.391L79.0838 25.5387ZM80.4579 24.504L79.973 23.2108L79.488 24.504H80.4579Z" fill="black"/>
<path d="M83.1737 25.5387H82.915V23.2269H82.3977V22.9683H83.6748V23.2269H83.1575V25.5387H83.1737Z" fill="black"/>
<path d="M88.3954 25.5387H88.1367V23.2269H87.6194V22.9683H88.8965V23.2269H88.3792V25.5387H88.3954Z" fill="black"/>
<path d="M90.8201 23.2269V25.5387H90.5776V22.9683H91.2728C91.4344 22.9683 91.5476 22.9844 91.6446 23.0006C91.7416 23.0168 91.8224 23.0653 91.8871 23.1138C91.9841 23.1784 92.0649 23.2754 92.1296 23.4047C92.1942 23.5179 92.2266 23.6472 92.2266 23.7927C92.2266 23.9867 92.1619 24.1645 92.0487 24.31C91.9841 24.3909 91.9194 24.4394 91.8547 24.4879C91.7739 24.5364 91.6931 24.5525 91.6123 24.5525L92.2266 25.5548H91.9194L91.1596 24.31H91.4021C91.5638 24.31 91.6931 24.2615 91.7901 24.1645C91.8871 24.0676 91.9356 23.9544 91.9356 23.7927C91.9356 23.7119 91.9194 23.6311 91.8871 23.5502C91.8547 23.4694 91.8062 23.4047 91.7416 23.3562C91.6931 23.3078 91.6284 23.2754 91.5638 23.2592C91.4829 23.2431 91.3698 23.2269 91.1919 23.2269H90.8201Z" fill="black"/>
<path d="M94.021 22.9678H94.2796V24.5844C94.2796 24.7137 94.2797 24.8107 94.2958 24.8592C94.2958 24.8916 94.312 24.9239 94.312 24.9401C94.312 24.9724 94.3281 24.9886 94.3443 25.0209C94.3928 25.1179 94.4575 25.1987 94.5383 25.2472C94.6191 25.2957 94.7323 25.3281 94.8455 25.3281C95.0394 25.3281 95.1849 25.2634 95.2819 25.1341C95.3789 25.0047 95.4274 24.7946 95.4274 24.5198V22.9517H95.6699V24.5844C95.6699 24.9077 95.6053 25.1664 95.4759 25.3281C95.3466 25.4897 95.1364 25.5705 94.8778 25.5705C94.5868 25.5705 94.3766 25.4897 94.2473 25.3281C94.118 25.1664 94.0372 24.9239 94.0372 24.5844V22.9678H94.021Z" fill="black"/>
<path d="M97.804 24.1156H98.8871V24.3743H97.804V25.2795H98.8871V25.522H97.5615V22.9517H98.8871V23.2103H97.804V24.1156Z" fill="black"/>
<path d="M103.236 22.9683H103.785C103.866 22.9683 103.931 22.9683 103.995 22.9683C104.06 22.9683 104.109 22.9844 104.157 22.9844C104.254 23.0006 104.335 23.0329 104.383 23.0653C104.497 23.1299 104.577 23.2269 104.642 23.3239C104.707 23.4371 104.739 23.5502 104.739 23.6957C104.739 23.8251 104.707 23.9382 104.658 24.0514C104.61 24.1645 104.529 24.2454 104.432 24.31C104.367 24.3585 104.286 24.3909 104.189 24.407C104.092 24.4232 103.979 24.4394 103.834 24.4394H103.494V25.5225H103.236V22.9683ZM103.478 23.2269V24.1969H103.85C104.06 24.1969 104.206 24.1645 104.303 24.0837C104.4 24.0029 104.448 23.8897 104.448 23.7119C104.448 23.5341 104.4 23.4209 104.303 23.3401C104.206 23.2592 104.044 23.2269 103.818 23.2269H103.478Z" fill="black"/>
<path d="M106.744 23.2269V25.5387H106.501V22.9683H107.196C107.358 22.9683 107.471 22.9844 107.568 23.0006C107.665 23.0168 107.746 23.0653 107.811 23.1138C107.908 23.1784 107.988 23.2754 108.053 23.4047C108.118 23.5179 108.15 23.6472 108.15 23.7927C108.15 23.9867 108.085 24.1645 107.972 24.31C107.908 24.3909 107.843 24.4394 107.778 24.4879C107.697 24.5364 107.617 24.5525 107.536 24.5525L108.15 25.5548H107.843L107.083 24.31H107.326C107.487 24.31 107.617 24.2615 107.714 24.1645C107.811 24.0676 107.859 23.9544 107.859 23.7927C107.859 23.7119 107.843 23.6311 107.811 23.5502C107.778 23.4694 107.73 23.4047 107.665 23.3562C107.617 23.3078 107.552 23.2754 107.487 23.2592C107.407 23.2431 107.293 23.2269 107.116 23.2269H106.744Z" fill="black"/>
<path d="M110.219 25.5387H109.961V22.9683H110.219V25.5387Z" fill="black"/>
<path d="M114.18 23.6308C114.067 23.4691 113.938 23.356 113.792 23.2751C113.647 23.1943 113.485 23.162 113.307 23.162C113.016 23.162 112.774 23.2751 112.58 23.4853C112.37 23.6954 112.273 23.9541 112.273 24.2451C112.273 24.5522 112.37 24.8109 112.58 25.0211C112.774 25.2312 113.032 25.3444 113.307 25.3444C113.485 25.3444 113.647 25.312 113.792 25.2312C113.938 25.1504 114.067 25.0534 114.164 24.9079H114.471C114.358 25.1342 114.196 25.2959 114.002 25.409C113.808 25.5222 113.582 25.5869 113.339 25.5869C112.968 25.5869 112.644 25.4575 112.402 25.1989C112.159 24.9402 112.03 24.6169 112.03 24.2289C112.03 24.0511 112.062 23.8733 112.127 23.7116C112.192 23.55 112.289 23.4045 112.434 23.2751C112.547 23.162 112.693 23.065 112.838 23.0003C112.984 22.9356 113.162 22.9033 113.339 22.9033C113.598 22.9033 113.824 22.968 114.035 23.0811C114.245 23.2105 114.406 23.3883 114.52 23.6146H114.18V23.6308Z" fill="black"/>
<path d="M116.556 24.1156H117.64V24.3743H116.556V25.2795H117.64V25.522H116.314V22.9517H117.64V23.2103H116.556V24.1156Z" fill="black"/>
<path d="M119.418 24.8108H119.66C119.66 24.8916 119.676 24.9563 119.693 25.021C119.709 25.0856 119.741 25.1341 119.79 25.1826C119.87 25.2796 119.984 25.3281 120.129 25.3281C120.275 25.3281 120.388 25.2796 120.485 25.1826C120.566 25.0856 120.614 24.9563 120.614 24.8108C120.614 24.5845 120.436 24.4067 120.081 24.2773L120.016 24.2612C119.822 24.1965 119.693 24.1157 119.612 24.0187C119.531 23.9217 119.482 23.7923 119.482 23.6307C119.482 23.4205 119.547 23.2589 119.676 23.1295C119.806 23.0002 119.967 22.9355 120.178 22.9355C120.372 22.9355 120.517 23.0002 120.63 23.1134C120.695 23.178 120.727 23.2427 120.776 23.3397C120.808 23.4205 120.824 23.5175 120.824 23.6145H120.582C120.566 23.469 120.533 23.372 120.452 23.2912C120.372 23.2104 120.291 23.178 120.161 23.178C120.032 23.178 119.935 23.2265 119.854 23.3074C119.773 23.3882 119.741 23.5014 119.741 23.6307C119.741 23.6954 119.757 23.76 119.773 23.8085C119.79 23.857 119.838 23.9055 119.887 23.9378C119.935 23.9702 120.048 24.0187 120.194 24.0672L120.388 24.1318C120.549 24.1965 120.679 24.2773 120.743 24.3743C120.808 24.4713 120.856 24.6006 120.856 24.7785C120.856 25.021 120.792 25.2311 120.646 25.3766C120.517 25.5221 120.323 25.6029 120.113 25.6029C119.903 25.6029 119.741 25.5383 119.612 25.3928C119.547 25.3119 119.499 25.2311 119.466 25.1341C119.434 25.021 119.418 24.924 119.418 24.8108Z" fill="black"/>
<path d="M12.0921 26.2658C11.8657 26.4921 11.6394 26.7184 11.4131 26.9447C11.7202 26.6538 12.0112 26.3628 12.3184 26.0718C12.3184 26.0718 12.3184 26.0718 12.3022 26.0718C12.2375 26.1203 12.1567 26.1849 12.0921 26.2658Z" fill="#0071BC"/>
<path d="M13.5793 8.67714C13.5955 7.75568 13.6278 6.85039 13.9188 5.96126C14.42 4.474 15.7294 3.7627 16.958 3.7627C17.3945 3.7627 17.7663 4.06985 17.8472 4.45783C17.9118 4.81348 17.6693 5.15297 17.2328 5.33079C17.1843 5.34696 17.1358 5.36312 17.0874 5.37929C16.9904 5.41162 16.8934 5.44395 16.7964 5.47629C16.0042 5.73494 15.5516 6.30075 15.4869 7.09288C15.4061 7.94968 15.4546 8.80647 15.4061 9.6471C15.3899 9.92192 15.2768 10.2129 15.1151 10.4392C14.9211 10.7464 14.5655 10.7625 14.226 10.6656C13.9027 10.5847 13.7087 10.3422 13.6602 10.0189C13.6117 9.5986 13.6117 9.12979 13.5793 8.67714Z" fill="#0071BC"/>
<path d="M23.4567 6.89886C23.4567 6.34922 23.392 5.76725 23.2627 5.23377C22.5999 2.43706 20.3367 0.416321 17.4915 0.0606702C15.3091 -0.214151 13.4177 0.448651 11.8496 1.96825C10.4755 3.31002 9.81266 4.95895 9.79649 6.86653C9.78033 10.1644 9.79649 13.4622 9.79649 16.7601C9.79649 16.8732 9.79649 16.9864 9.79649 17.1157C10.2491 17.0511 10.718 17.0672 11.2191 17.1642C13.1105 17.5199 14.4846 18.5383 15.0343 20.4621C15.1151 20.7369 15.1474 21.0117 15.1959 21.2866V21.7877C15.1474 22.0464 15.1151 22.305 15.0504 22.5475C14.8403 23.3396 14.4199 24.0186 13.838 24.5844C13.3368 25.0694 12.8357 25.5544 12.3345 26.0555C12.4477 26.1363 12.5285 26.201 12.6255 26.2657C14.1936 27.3811 15.9395 27.8014 17.831 27.4619C21.1773 26.8638 23.4729 24.0671 23.4729 20.6722C23.4567 16.0811 23.4729 11.49 23.4567 6.89886ZM21.1773 13.8987C18.1219 13.8987 15.1313 13.8987 12.1082 13.8987C12.1082 13.8179 12.0921 13.7371 12.0921 13.6724C12.0921 11.296 12.0436 8.91961 12.1082 6.54321C12.1729 4.29615 14.1451 2.3724 16.2952 2.38857C17.055 2.38857 17.7986 2.38857 18.4938 2.71188C19.9972 3.42319 20.8702 4.61946 21.1126 6.25222C21.1611 6.60788 21.1611 6.96353 21.1611 7.31918C21.1611 9.38842 21.1611 11.4415 21.1611 13.5107C21.1773 13.6239 21.1773 13.7532 21.1773 13.8987Z" fill="#0071BC"/>
<path d="M15.0343 22.5638C15.099 22.3213 15.1313 22.0627 15.1798 21.804V21.3029C15.1313 21.0281 15.099 20.7532 15.0182 20.4784C14.4685 18.5547 13.0944 17.5362 11.203 17.1806C10.718 17.0836 10.233 17.0674 9.78039 17.1321C9.78039 17.1482 9.78039 17.1482 9.78039 17.1644C9.05293 17.3261 8.43862 17.6817 7.90514 18.199C7.69499 18.393 7.46866 18.3122 7.29084 18.1344C6.36938 17.1967 5.2216 16.9542 3.97682 17.1806C2.08541 17.5362 0.711301 18.5547 0.161659 20.4784C0.0808297 20.7532 0.0484978 21.0281 0 21.3029C0 21.4645 0 21.6424 0 21.804C0.0484978 22.0627 0.0808299 22.3213 0.145494 22.5638C0.355651 23.3559 0.775965 24.0349 1.35794 24.6007C2.95837 26.1688 4.59113 27.7369 6.19155 29.305C6.5472 29.6607 6.98368 29.8708 7.4525 30.0002C7.58182 30.0002 7.69499 30.0002 7.82431 30.0002C8.45479 29.8708 8.90743 29.4828 9.34391 29.0302C10.0229 28.3189 10.7019 27.6399 11.397 26.9448C10.5887 27.7369 9.78039 28.5129 8.9721 29.305C9.78039 28.5129 10.5887 27.7208 11.397 26.9448C11.6233 26.7185 11.8496 26.4921 12.076 26.2658C12.1406 26.2012 12.2214 26.1203 12.2861 26.0557C12.2861 26.0557 12.2861 26.0557 12.3023 26.0557C12.8034 25.5707 13.3046 25.0857 13.8057 24.5846C14.4039 24.0349 14.8242 23.3559 15.0343 22.5638ZM12.5771 22.4022C12.4316 22.7416 12.1891 23.0811 11.9305 23.356C10.6857 24.6331 9.42474 25.894 8.1638 27.155C7.71115 27.6076 7.42017 27.6076 6.96752 27.155C5.70658 25.894 4.44563 24.6331 3.20085 23.356C2.69971 22.8548 2.37639 22.2567 2.37639 21.5292C2.37639 20.0419 3.76666 19.0396 5.2216 19.46C5.78741 19.6216 6.25622 19.9611 6.66037 20.3653C7.54949 21.222 7.59799 21.1897 8.47095 20.3653C8.9236 19.9288 9.44091 19.5731 10.0714 19.4276C10.9282 19.2336 11.6718 19.46 12.2376 20.1228C12.8196 20.7856 12.9327 21.5777 12.5771 22.4022Z" fill="#22B573"/>
</svg>
