<svg width="17" height="17" viewBox="0 0 17 17" fill="none" xmlns="http://www.w3.org/2000/svg">
<g clip-path="url(#clip0)">
<path d="M2.00586 4.07617H3.33919H14.0059" stroke="white" stroke-linecap="round" stroke-linejoin="round"/>
<path d="M5.33984 4.07633V2.743C5.33984 2.38938 5.48032 2.05024 5.73037 1.80019C5.98042 1.55014 6.31956 1.40967 6.67318 1.40967H9.33985C9.69347 1.40967 10.0326 1.55014 10.2827 1.80019C10.5327 2.05024 10.6732 2.38938 10.6732 2.743V4.07633M12.6732 4.07633V13.4097C12.6732 13.7633 12.5327 14.1024 12.2827 14.3525C12.0326 14.6025 11.6935 14.743 11.3398 14.743H4.67318C4.31956 14.743 3.98042 14.6025 3.73037 14.3525C3.48032 14.1024 3.33984 13.7633 3.33984 13.4097V4.07633H12.6732Z" stroke="white" stroke-linecap="round" stroke-linejoin="round"/>
<path d="M6.67188 7.40967V11.4097" stroke="white" stroke-linecap="round" stroke-linejoin="round"/>
<path d="M9.33984 7.40967V11.4097" stroke="white" stroke-linecap="round" stroke-linejoin="round"/>
</g>
<defs>
<clipPath id="clip0">
<rect width="16" height="16" fill="white" transform="translate(0.00585938 0.0761719)"/>
</clipPath>
</defs>
</svg>
