<svg width="16" height="16" viewBox="0 0 16 16" fill="none" xmlns="http://www.w3.org/2000/svg">
<g clip-path="url(#clip0_127_5)">
<circle r="8" transform="matrix(4.37114e-08 -1 -1 -4.37114e-08 8 8)" fill="#E3E6EC"/>
<path d="M7.96048 6.30466L11.0333 9.54215L11.457 9.14261L7.96082 5.45898L4.45925 9.14245L4.88271 9.54232L7.96048 6.30466Z" fill="#AAB0B7" stroke="#AAB0B7" stroke-linecap="round" stroke-linejoin="round"/>
</g>
<defs>
<clipPath id="clip0_127_5">
<rect width="16" height="16" fill="white" transform="matrix(4.37114e-08 -1 -1 -4.37114e-08 16 16)"/>
</clipPath>
</defs>
</svg>
