<svg width="83" height="83" viewBox="0 0 83 83" fill="none" xmlns="http://www.w3.org/2000/svg">
<rect x="0.867188" y="0.979492" width="82" height="82" rx="41" fill="#B5C1FF"/>
<g clip-path="url(#clip0_523_2610)">
<path d="M46.3184 73.9404L72.6572 58.6823L72.7214 24.1328L46.3825 39.3909L46.3184 73.9404Z" fill="#F8B84E"/>
<path d="M12.8063 20.1748L12.7422 54.7243L46.3071 73.9837L46.3713 39.4449L12.8063 20.1748Z" fill="#C57935"/>
<path d="M12.7422 20.1745L39.1772 5.9834L72.7422 24.1864L46.3071 39.4446L12.7422 20.1745Z" fill="#FFDB9C"/>
<path d="M25.3984 13.4205L28.477 11.7666L61.5716 30.6205L58.6427 32.317L25.3984 13.4205Z" fill="white"/>
<path d="M61.5715 30.6201V37.2782L61.2615 37.0435L61.1012 37.7797L60.5239 37.3636L60.385 37.9824L59.9146 37.609L59.8184 38.1958L59.487 37.8544L59.4015 38.4306L59.0702 37.6196L58.6533 38.4306L58.6426 32.3166L61.5715 30.6201Z" fill="#CFD8DC"/>
</g>
<defs>
<clipPath id="clip0_523_2610">
<rect width="60" height="68" fill="white" transform="translate(12.7422 5.9834)"/>
</clipPath>
</defs>
</svg>
