<svg width="77" height="70" viewBox="0 0 77 70" fill="none" xmlns="http://www.w3.org/2000/svg">
<g clip-path="url(#clip0_83_2337)">
<rect x="0.388184" width="73.9623" height="70" rx="35" fill="#FFDB7C"/>
<g clip-path="url(#clip1_83_2337)">
<path d="M27.2471 33.8176C27.2711 34.7964 27.002 35.7603 26.4737 36.5874C25.9454 37.4145 25.1818 38.0677 24.2792 38.4644C23.3767 38.8611 22.3758 38.9835 21.4032 38.8161C20.4305 38.6487 19.5297 38.199 18.8147 37.5239C18.0997 36.8489 17.6025 35.9787 17.3861 35.0234C17.1697 34.0681 17.2437 33.0706 17.5988 32.157C17.9538 31.2435 18.5741 30.4548 19.381 29.8908C20.188 29.3268 21.1454 29.0127 22.1323 28.9884C22.7879 28.9722 23.4403 29.0842 24.0522 29.3182C24.6641 29.5521 25.2236 29.9034 25.6986 30.3519C26.1736 30.8003 26.5548 31.3372 26.8205 31.9319C27.0863 32.5266 27.2312 33.1673 27.2471 33.8176Z" fill="#F5B087"/>
<path d="M19.4517 33.2469C19.4517 33.2469 21.4408 32.2948 23.2917 35.7225" stroke="#323232" stroke-width="0.64717" stroke-linecap="round" stroke-linejoin="round"/>
<path d="M45.5181 34.0086C45.5136 34.99 45.8027 35.9506 46.349 36.7689C46.8952 37.5872 47.674 38.2264 48.5867 38.6054C49.4994 38.9844 50.505 39.0863 51.4762 38.8982C52.4473 38.7101 53.3403 38.2404 54.0421 37.5486C54.744 36.8568 55.223 35.974 55.4187 35.012C55.6143 34.05 55.5178 33.052 55.1412 32.1444C54.7647 31.2369 54.1251 30.4606 53.3034 29.9138C52.4817 29.367 51.515 29.0743 50.5255 29.0728C49.2021 29.0707 47.9319 29.5891 46.9933 30.5144C46.0547 31.4396 45.5242 32.6961 45.5181 34.0086Z" fill="#F5B087"/>
<path d="M53.36 33.247C53.36 33.247 51.3479 32.3406 49.52 35.8064" stroke="#323232" stroke-width="0.64717" stroke-linecap="round" stroke-linejoin="round"/>
<path d="M27.8389 11.4776C27.8389 11.4776 23.6533 9.8323 20.2434 15.1262C15.1823 22.987 24.621 35.4866 24.621 35.4866L27.8389 11.4776Z" fill="#323232"/>
<path d="M44.8267 11.4776C44.8267 11.4776 49.0122 9.8323 52.4221 15.1262C57.4832 22.987 48.0445 35.4866 48.0445 35.4866L44.8267 11.4776Z" fill="#323232"/>
<path d="M36.1486 40.5288C44.8649 40.5288 51.9309 33.5207 51.9309 24.8757C51.9309 16.2308 44.8649 9.22266 36.1486 9.22266C27.4322 9.22266 20.3662 16.2308 20.3662 24.8757C20.3662 33.5207 27.4322 40.5288 36.1486 40.5288Z" fill="#323232"/>
<path d="M42.0698 44.6721C42.0698 44.6721 39.9424 47.399 37.3773 47.8788C35.6127 48.0891 33.8267 47.7285 32.2855 46.8505L29.9124 44.1465L28.6836 55.336L43.6596 55.2445L42.0698 44.6721Z" fill="#F5B087"/>
<path d="M30.6572 47.3612L43.4982 54.148L42.062 44.6648L30.6572 47.3612Z" fill="#E09069"/>
<path d="M49.918 25.4166C49.9172 30.0823 49.3839 34.7329 48.3283 39.2796C47.5603 42.6387 45.3254 44.9924 42.1843 46.8967L41.6083 47.2471C39.9563 48.232 38.0698 48.7631 36.1425 48.7859C34.2151 48.8087 32.3164 48.3222 30.6413 47.3766C27.2467 45.4342 24.8736 42.8673 24.1747 39.2644C23.3601 35.2093 22.8798 31.0952 22.7386 26.9628C22.7386 26.9628 20.8186 10.5633 35.5257 10.5557C51.4233 10.5557 49.918 25.4166 49.918 25.4166Z" fill="#F5B087"/>
<path d="M49.6809 32.0588C49.6809 32.0588 47.8224 39.7673 43.944 38.998C42.4638 38.6763 41.0203 38.2067 39.6355 37.5964C37.4478 36.6784 34.9832 36.6538 32.7773 37.5279C31.3287 38.1615 29.8215 38.6538 28.2768 38.998C24.4368 39.7597 23.0621 32.7291 23.0621 32.7291C22.654 35.9708 23.1869 39.2606 24.5981 42.2124C25.1126 43.498 25.8851 44.6666 26.8686 45.6473C27.8521 46.628 29.0262 47.4004 30.3197 47.9176L30.527 47.9937C33.9381 49.2666 37.6814 49.3658 41.1561 48.2756C43.5446 47.6967 46.2787 46.1199 48.0681 42.1819C49.4813 39.0032 50.0371 35.5148 49.6809 32.0588Z" fill="#323232"/>
<path d="M31.0878 30.2761C31.0878 30.5892 30.9624 30.8895 30.7392 31.1109C30.5159 31.3324 30.2132 31.4567 29.8974 31.4567C29.5817 31.4567 29.2789 31.3324 29.0557 31.1109C28.8324 30.8895 28.707 30.5892 28.707 30.2761C28.707 29.963 28.8324 29.6627 29.0557 29.4413C29.2789 29.2198 29.5817 29.0955 29.8974 29.0955C30.2132 29.0955 30.5159 29.2198 30.7392 29.4413C30.9624 29.6627 31.0878 29.963 31.0878 30.2761Z" fill="#323232"/>
<path d="M42.7841 30.314C42.7841 30.5478 42.7141 30.7764 42.583 30.9707C42.4518 31.165 42.2654 31.3163 42.0475 31.4055C41.8295 31.4946 41.5898 31.5175 41.3586 31.4713C41.1275 31.4252 40.9154 31.312 40.7493 31.1461C40.5831 30.9802 40.4703 30.7691 40.4253 30.5396C40.3802 30.3101 40.4049 30.0725 40.4962 29.8569C40.5874 29.6413 40.7412 29.4574 40.938 29.3286C41.1347 29.1998 41.3656 29.1318 41.6014 29.1333C41.9158 29.1353 42.2166 29.2606 42.4382 29.4818C42.6598 29.703 42.7841 30.0022 42.7841 30.314Z" fill="#323232"/>
<path d="M35.219 31.061L35.0654 35.1057L36.7781 35.1133" stroke="#323232" stroke-width="0.64717" stroke-linecap="round" stroke-linejoin="round"/>
<path d="M38.7671 22.2473C38.7671 22.2473 38.4215 23.5194 40.4107 23.5499C41.8365 23.62 43.2529 23.8189 44.6423 24.144C44.8735 24.1998 45.1163 24.187 45.3402 24.1071C45.5642 24.0272 45.7595 23.8837 45.9018 23.6946C45.9951 23.5589 46.0349 23.3939 46.0137 23.2311C45.9924 23.0682 45.9116 22.9187 45.7866 22.811C44.5235 21.8484 43.005 21.2714 41.4167 21.1505C39.0436 21.0972 38.7671 22.2473 38.7671 22.2473Z" fill="#323232"/>
<path d="M32.6769 22.2786C32.6769 22.2786 33.0225 23.5506 31.0334 23.5811C29.6076 23.6513 28.1912 23.8501 26.8017 24.1752C26.5705 24.2311 26.3278 24.2183 26.1038 24.1384C25.8799 24.0584 25.6846 23.915 25.5422 23.7258C25.4489 23.5901 25.4092 23.4252 25.4304 23.2623C25.4516 23.0994 25.5324 22.95 25.6574 22.8422C26.9206 21.8796 28.439 21.3026 30.0273 21.1817C32.3927 21.1284 32.6769 22.2786 32.6769 22.2786Z" fill="#323232"/>
<path d="M33.9824 39.9038C33.9824 39.9038 36.8624 41.0388 38.7363 39.0964" stroke="white" stroke-width="0.64717" stroke-linecap="round" stroke-linejoin="round"/>
<path d="M49.7956 16.9995C46.1932 14.6032 42.0552 13.116 37.7413 12.6673C33.4273 12.2186 29.0682 12.8219 25.043 14.4249C25.043 14.4249 18.3461 6.25179 28.7294 3.24305C39.1127 0.23431 48.8433 9.17674 49.7956 16.9995Z" fill="#323232"/>
<path d="M10.7275 62.8848C10.7275 62.8848 -0.992145 66.1296 -3.70318 90.1615C-6.49869 115.054 -12.8193 165.525 -12.8193 165.525L4.22255 165.974L17.002 82.2626L10.7275 62.8848Z" fill="white"/>
<path d="M24.5664 57.0962L18.9062 67.6154V138.127H53.3279V64.4238L47.7753 57.0962H24.5664Z" fill="#8BD5EE"/>
<path d="M43.6596 54.5596L36.7629 61.4606L28.6836 54.6434L43.6596 54.5596Z" fill="#F5B087"/>
<path d="M28.6834 54.6431L24.5669 57.0958L30.6571 67.6149L36.7627 61.4603L28.6834 54.6431Z" fill="#AFE2FD"/>
<path d="M43.6596 54.5596L47.776 57.096L42.8916 67.6152L36.7783 61.4606L43.6596 54.5596Z" fill="#AFE2FD"/>
<path d="M24.5662 57.0962L10.7269 62.8775L8.65332 199.429H29.1589L24.5662 57.0962Z" fill="white"/>
<path d="M24.2522 57.4387L14.8442 67.6151L21.3876 71.9264L17.0023 76.9917L26.5255 117.865" stroke="#CFEAE7" stroke-width="1.4" stroke-linecap="round" stroke-linejoin="round"/>
<path d="M47.7762 57.0962L61.6232 62.8775L65.6398 199.429H45.1343L47.7762 57.0962Z" fill="white"/>
<path d="M48.26 57.4387L57.6679 67.6151L51.1246 71.9264L55.5099 76.9917L45.979 117.865" stroke="#CFEAE7" stroke-width="1.4" stroke-linecap="round" stroke-linejoin="round"/>
<path d="M59.5027 62.1921C59.5027 62.1921 71.6294 63.289 78.7026 86.4449C81.9702 97.1233 84.6696 107.965 86.7897 118.924C87.6114 123.251 86.0216 129.946 81.7132 130.868C77.6581 131.736 72.3206 126.937 70.9612 123.045L56.8838 82.3774L59.5027 62.1921Z" fill="white"/>
<path d="M29.1361 35.7451C32.313 35.7451 34.8884 33.1908 34.8884 30.0399C34.8884 26.889 32.313 24.3347 29.1361 24.3347C25.9592 24.3347 23.3838 26.889 23.3838 30.0399C23.3838 33.1908 25.9592 35.7451 29.1361 35.7451Z" stroke="white" stroke-width="1.09623" stroke-miterlimit="10"/>
<path d="M43.5062 35.7451C46.6831 35.7451 49.2585 33.1908 49.2585 30.0399C49.2585 26.889 46.6831 24.3347 43.5062 24.3347C40.3293 24.3347 37.7539 26.889 37.7539 30.0399C37.7539 33.1908 40.3293 35.7451 43.5062 35.7451Z" stroke="white" stroke-width="1.09623" stroke-miterlimit="10"/>
<path d="M37.7615 30.0404C36.4328 28.875 34.8892 30.0404 34.8892 30.0404" stroke="white" stroke-width="1.09623" stroke-miterlimit="10"/>
</g>
</g>
<path d="M73.0557 59.2524L73.0534 59.2522L69.653 58.8692C68.6793 58.759 67.7173 59.0897 67.0268 59.7709L64.8356 61.9324C61.4122 60.1311 58.5884 57.3572 56.7614 53.9741L58.9591 51.8061C59.65 51.1245 59.9887 50.1711 59.876 49.2029L59.876 49.2027L59.4877 45.8744L59.4875 45.8725C59.2944 44.2689 57.9274 43.0696 56.2987 43.0696H53.9824C52.1922 43.0696 50.663 44.5416 50.7775 46.365L50.7775 46.365C51.5042 57.9161 60.8663 67.13 72.5469 67.846L72.547 67.846C74.376 67.9577 75.8789 66.4617 75.8789 64.6771V62.3948C75.8937 60.7805 74.6637 59.4409 73.0557 59.2524Z" fill="#323232" stroke="#323232" stroke-width="1.0566"/>
<defs>
<clipPath id="clip0_83_2337">
<rect x="0.388184" width="73.9623" height="70" rx="35" fill="white"/>
</clipPath>
<clipPath id="clip1_83_2337">
<rect width="100.377" height="318.302" fill="white" transform="translate(-12.8193 2.64111)"/>
</clipPath>
</defs>
</svg>
