<svg width="56" height="53" viewBox="0 0 56 53" fill="none" xmlns="http://www.w3.org/2000/svg">
<g clip-path="url(#clip0_501_6462)">
<rect width="56" height="53" rx="26.5" fill="#FFDB7C"/>
<g clip-path="url(#clip1_501_6462)">
<path d="M20.336 25.6048C20.3542 26.3459 20.1504 27.0757 19.7504 27.702C19.3504 28.3282 18.7722 28.8228 18.0889 29.1232C17.4055 29.4235 16.6477 29.5162 15.9113 29.3894C15.1748 29.2627 14.4928 28.9222 13.9514 28.4111C13.4101 27.9 13.0337 27.2411 12.8698 26.5178C12.7059 25.7945 12.7619 25.0393 13.0308 24.3476C13.2996 23.6559 13.7692 23.0588 14.3802 22.6317C14.9912 22.2047 15.7161 21.9669 16.4633 21.9484C16.9597 21.9362 17.4537 22.021 17.917 22.1982C18.3803 22.3753 18.8039 22.6412 19.1635 22.9808C19.5232 23.3204 19.8118 23.7269 20.013 24.1771C20.2142 24.6274 20.3239 25.1125 20.336 25.6048Z" fill="#F5B087"/>
<path d="M14.4341 25.172C14.4341 25.172 15.9401 24.4511 17.3415 27.0464" stroke="#1F0004" stroke-width="0.49" stroke-linecap="round" stroke-linejoin="round"/>
<path d="M34.1695 25.7499C34.166 26.4929 34.3849 27.2202 34.7985 27.8398C35.2121 28.4594 35.8018 28.9433 36.4928 29.2303C37.1839 29.5173 37.9453 29.5944 38.6806 29.452C39.4158 29.3095 40.092 28.9539 40.6234 28.4301C41.1548 27.9063 41.5175 27.2379 41.6656 26.5095C41.8138 25.7811 41.7406 25.0255 41.4555 24.3384C41.1704 23.6513 40.6862 23.0635 40.064 22.6495C39.4419 22.2355 38.7099 22.0138 37.9607 22.0127C36.9588 22.0112 35.9971 22.4037 35.2864 23.1042C34.5757 23.8047 34.1741 24.7561 34.1695 25.7499Z" fill="#F5B087"/>
<path d="M40.1066 25.1727C40.1066 25.1727 38.5832 24.4864 37.1992 27.1105" stroke="#1F0004" stroke-width="0.49" stroke-linecap="round" stroke-linejoin="round"/>
<path d="M20.7838 8.68987C20.7838 8.68987 17.6147 7.44416 15.0329 11.4524C11.2009 17.4041 18.3474 26.8681 18.3474 26.8681L20.7838 8.68987Z" fill="#200803"/>
<path d="M33.646 8.68987C33.646 8.68987 36.8151 7.44416 39.3969 11.4524C43.2288 17.4041 36.0824 26.8681 36.0824 26.8681L33.646 8.68987Z" fill="#200803"/>
<path d="M27.0755 30.6856C33.675 30.6856 39.025 25.3795 39.025 18.834C39.025 12.2886 33.675 6.98242 27.0755 6.98242C20.476 6.98242 15.126 12.2886 15.126 18.834C15.126 25.3795 20.476 30.6856 27.0755 30.6856Z" fill="#200803"/>
<path d="M31.5586 33.8237C31.5586 33.8237 29.9479 35.8884 28.0057 36.2517C26.6697 36.4109 25.3174 36.1378 24.1505 35.4731L22.3537 33.4258L21.4233 41.8978L32.7623 41.8286L31.5586 33.8237Z" fill="#F5B087"/>
<path d="M22.918 35.8599L32.6404 40.9985L31.553 33.8184L22.918 35.8599Z" fill="#E09069"/>
<path d="M37.5014 19.244C37.5008 22.7766 37.097 26.2978 36.2977 29.7403C35.7162 32.2837 34.0241 34.0657 31.6459 35.5075L31.2097 35.7728C29.959 36.5186 28.5306 36.9207 27.0713 36.9379C25.6121 36.9552 24.1745 36.5869 22.9061 35.8709C20.336 34.4002 18.5392 32.4567 18.01 29.7288C17.3933 26.6585 17.0296 23.5436 16.9227 20.4148C16.9227 20.4148 15.469 7.99795 26.6044 7.99219C38.6411 7.99219 37.5014 19.244 37.5014 19.244Z" fill="#F5B087"/>
<path d="M37.3212 24.2734C37.3212 24.2734 35.914 30.1098 32.9775 29.5274C31.8568 29.2838 30.7638 28.9282 29.7154 28.4662C28.0589 27.7711 26.1929 27.7525 24.5227 28.4143C23.4259 28.894 22.2847 29.2668 21.1152 29.5274C18.2078 30.1041 17.1669 24.781 17.1669 24.781C16.8579 27.2353 17.2614 29.7262 18.3299 31.9611C18.7195 32.9345 19.3043 33.8193 20.049 34.5619C20.7936 35.3044 21.6826 35.8892 22.6619 36.2808L22.8189 36.3384C25.4016 37.3021 28.2358 37.3773 30.8667 36.5518C32.6751 36.1135 34.7452 34.9197 36.1 31.9381C37.17 29.5313 37.5908 26.8901 37.3212 24.2734Z" fill="#291C1C"/>
<path d="M23.2435 22.9232C23.2435 23.1603 23.1486 23.3877 22.9795 23.5553C22.8105 23.7229 22.5813 23.8171 22.3422 23.8171C22.1032 23.8171 21.8739 23.7229 21.7049 23.5553C21.5359 23.3877 21.4409 23.1603 21.4409 22.9232C21.4409 22.6861 21.5359 22.4588 21.7049 22.2911C21.8739 22.1235 22.1032 22.0293 22.3422 22.0293C22.5813 22.0293 22.8105 22.1235 22.9795 22.2911C23.1486 22.4588 23.2435 22.6861 23.2435 22.9232Z" fill="#1F0004"/>
<path d="M32.0995 22.9525C32.0995 23.1296 32.0465 23.3026 31.9472 23.4498C31.8479 23.5969 31.7068 23.7115 31.5417 23.7789C31.3767 23.8464 31.1952 23.8638 31.0202 23.8288C30.8452 23.7939 30.6846 23.7082 30.5588 23.5826C30.433 23.457 30.3476 23.2971 30.3135 23.1234C30.2794 22.9496 30.2981 22.7697 30.3672 22.6064C30.4363 22.4432 30.5527 22.304 30.7017 22.2065C30.8507 22.1089 31.0255 22.0575 31.204 22.0586C31.442 22.0601 31.6698 22.155 31.8376 22.3225C32.0053 22.4899 32.0995 22.7164 32.0995 22.9525Z" fill="#1F0004"/>
<path d="M26.3717 23.5176L26.2554 26.58L27.5521 26.5857" stroke="#1F0004" stroke-width="0.49" stroke-linecap="round" stroke-linejoin="round"/>
<path d="M29.0584 16.8445C29.0584 16.8445 28.7968 17.8077 30.3028 17.8307C31.3824 17.8838 32.4548 18.0344 33.5068 18.2806C33.6819 18.3229 33.8656 18.3131 34.0352 18.2526C34.2047 18.1921 34.3526 18.0835 34.4604 17.9403C34.531 17.8376 34.5612 17.7127 34.5451 17.5894C34.529 17.466 34.4678 17.3529 34.3732 17.2713C33.4168 16.5425 32.2671 16.1056 31.0645 16.0141C29.2678 15.9737 29.0584 16.8445 29.0584 16.8445Z" fill="#1F0004"/>
<path d="M24.4469 16.868C24.4469 16.868 24.7086 17.8311 23.2026 17.8542C22.123 17.9073 21.0506 18.0578 19.9986 18.304C19.8235 18.3463 19.6397 18.3366 19.4702 18.2761C19.3006 18.2156 19.1527 18.107 19.0449 17.9637C18.9743 17.861 18.9442 17.7361 18.9603 17.6128C18.9764 17.4895 19.0375 17.3763 19.1322 17.2947C20.0886 16.5659 21.2382 16.129 22.4408 16.0375C24.2318 15.9971 24.4469 16.868 24.4469 16.868Z" fill="#1F0004"/>
<path d="M25.4355 30.2129C25.4355 30.2129 27.6161 31.0722 29.0349 29.6016" stroke="white" stroke-width="0.49" stroke-linecap="round" stroke-linejoin="round"/>
<path d="M37.4088 12.8707C34.6813 11.0564 31.5482 9.93039 28.2819 9.59066C25.0157 9.25093 21.7152 9.70776 18.6676 10.9214C18.6676 10.9214 13.597 4.73322 21.4587 2.45517C29.3203 0.177124 36.6877 6.94782 37.4088 12.8707Z" fill="#200803"/>
<path d="M7.82831 47.6133C7.82831 47.6133 -1.04513 50.0701 -3.09777 68.2656C-5.21437 87.1129 -10 125.326 -10 125.326L2.90314 125.667L12.579 62.2851L7.82831 47.6133Z" fill="white"/>
<path d="M18.3065 43.2305L14.021 51.195V104.582H40.0831V48.7785L35.879 43.2305H18.3065Z" fill="#8BD5EE"/>
<path d="M32.7623 41.3096L27.5406 46.5347L21.4233 41.373L32.7623 41.3096Z" fill="#F5B087"/>
<path d="M21.4234 41.3721L18.3066 43.2291L22.9178 51.1936L27.5406 46.5337L21.4234 41.3721Z" fill="#AFE2FD"/>
<path d="M32.7623 41.3096L35.8791 43.23L32.1809 51.1946L27.5522 46.5347L32.7623 41.3096Z" fill="#AFE2FD"/>
<path d="M18.3067 43.2305L7.82831 47.6078L6.2583 150.997H21.7839L18.3067 43.2305Z" fill="white"/>
<path d="M18.0685 43.4893L10.9453 51.1942L15.8996 54.4585L12.5793 58.2937L19.7897 89.2405" stroke="#CFEAE7" stroke-width="1.06" stroke-linecap="round" stroke-linejoin="round"/>
<path d="M35.8792 43.2305L46.3634 47.6078L49.4045 150.997H33.8789L35.8792 43.2305Z" fill="white"/>
<path d="M36.2456 43.4893L43.3687 51.1942L38.4145 54.4585L41.7348 58.2937L34.5186 89.2405" stroke="#CFEAE7" stroke-width="1.06" stroke-linecap="round" stroke-linejoin="round"/>
<path d="M44.7583 47.0879C44.7583 47.0879 53.9399 47.9184 59.2954 65.4507C61.7694 73.5357 63.8132 81.7442 65.4184 90.042C66.0406 93.3178 64.8369 98.3872 61.5748 99.085C58.5045 99.7425 54.4632 96.1091 53.434 93.1621L42.7754 62.371L44.7583 47.0879Z" fill="white"/>
<path d="M21.7665 27.0641C24.1718 27.0641 26.1218 25.1301 26.1218 22.7444C26.1218 20.3588 24.1718 18.4248 21.7665 18.4248C19.3611 18.4248 17.4111 20.3588 17.4111 22.7444C17.4111 25.1301 19.3611 27.0641 21.7665 27.0641Z" stroke="white" stroke-width="0.83" stroke-miterlimit="10"/>
<path d="M32.6463 27.0641C35.0517 27.0641 37.0017 25.1301 37.0017 22.7444C37.0017 20.3588 35.0517 18.4248 32.6463 18.4248C30.241 18.4248 28.291 20.3588 28.291 22.7444C28.291 25.1301 30.241 27.0641 32.6463 27.0641Z" stroke="white" stroke-width="0.83" stroke-miterlimit="10"/>
<path d="M28.2968 22.7447C27.2908 21.8623 26.1221 22.7447 26.1221 22.7447" stroke="white" stroke-width="0.83" stroke-miterlimit="10"/>
</g>
</g>
<defs>
<clipPath id="clip0_501_6462">
<rect width="56" height="53" rx="26.5" fill="white"/>
</clipPath>
<clipPath id="clip1_501_6462">
<rect width="76" height="241" fill="white" transform="translate(-10 2)"/>
</clipPath>
</defs>
</svg>
