<svg width="90" height="90" viewBox="0 0 90 90" fill="none" xmlns="http://www.w3.org/2000/svg">
<g clip-path="url(#clip0_523_2023)">
<rect width="90" height="90" rx="45" fill="#FFDB7C"/>
<g clip-path="url(#clip1_523_2023)">
<path d="M35.2111 37.1338C35.2343 38.078 34.974 39.0078 34.4632 39.8057C33.9524 40.6036 33.214 41.2338 32.3413 41.6165C31.4686 41.9991 30.5008 42.1172 29.5603 41.9557C28.6198 41.7942 27.7488 41.3605 27.0574 40.7092C26.366 40.058 25.8853 39.2185 25.676 38.297C25.4668 37.3754 25.5383 36.4132 25.8817 35.5319C26.225 34.6506 26.8247 33.8898 27.605 33.3457C28.3853 32.8016 29.311 32.4986 30.2653 32.4751C30.8992 32.4595 31.5301 32.5676 32.1217 32.7933C32.7134 33.019 33.2544 33.3578 33.7137 33.7905C34.173 34.2231 34.5416 34.741 34.7986 35.3147C35.0555 35.8883 35.1957 36.5065 35.2111 37.1338V37.1338Z" fill="#F5B087"/>
<path d="M27.6748 36.583C27.6748 36.583 29.5982 35.6645 31.3878 38.9711" stroke="#1F0004" stroke-width="0.432353" stroke-linecap="round" stroke-linejoin="round"/>
<path d="M52.879 37.3182C52.8745 38.2649 53.1541 39.1916 53.6823 39.981C54.2105 40.7704 54.9636 41.3869 55.8461 41.7526C56.7286 42.1182 57.701 42.2165 58.64 42.035C59.579 41.8536 60.4425 41.4004 61.1212 40.7331C61.7998 40.0657 62.263 39.2141 62.4522 38.2861C62.6414 37.358 62.548 36.3953 62.1839 35.5198C61.8198 34.6443 61.2014 33.8954 60.4069 33.368C59.6123 32.8405 58.6775 32.5581 57.7207 32.5566C56.4412 32.5547 55.213 33.0548 54.3054 33.9473C53.3978 34.8399 52.8849 36.052 52.879 37.3182V37.3182Z" fill="#F5B087"/>
<path d="M60.4611 36.5826C60.4611 36.5826 58.5155 35.7082 56.748 39.0516" stroke="#1F0004" stroke-width="0.432353" stroke-linecap="round" stroke-linejoin="round"/>
<path d="M35.7841 15.5818C35.7841 15.5818 31.7369 13.9947 28.4397 19.1015C23.5459 26.6847 32.6725 38.7428 32.6725 38.7428L35.7841 15.5818Z" fill="#200803"/>
<path d="M52.2119 15.5818C52.2119 15.5818 56.2591 13.9947 59.5563 19.1015C64.4501 26.6847 55.3234 38.7428 55.3234 38.7428L52.2119 15.5818Z" fill="#200803"/>
<path d="M43.8192 43.6076C52.2474 43.6076 59.0798 36.847 59.0798 28.5074C59.0798 20.1678 52.2474 13.4072 43.8192 13.4072C35.391 13.4072 28.5586 20.1678 28.5586 28.5074C28.5586 36.847 35.391 43.6076 43.8192 43.6076Z" fill="#200803"/>
<path d="M49.5452 47.6047C49.5452 47.6047 47.4882 50.2353 45.0079 50.6982C43.3016 50.901 41.5747 50.5531 40.0844 49.7062C40.0844 49.7062 37.7897 47.0977 37.7897 47.0977L36.6016 57.8919L51.0824 57.8037L49.5452 47.6047Z" fill="#F5B087"/>
<path d="M38.5098 50.1989L50.9262 56.7459L49.5375 47.5977L38.5098 50.1989Z" fill="#E09069"/>
<path d="M57.1339 29.0293C57.1331 33.5302 56.6174 38.0166 55.5967 42.4027C54.8541 45.6432 52.6931 47.9137 49.6558 49.7507L49.0989 50.0887C47.5016 51.0389 45.6774 51.5513 43.8138 51.5732C41.9501 51.5952 40.1142 51.1259 38.4945 50.2137V50.2137C35.2121 48.3399 32.9175 45.8636 32.2417 42.388C31.4541 38.4762 30.9896 34.5074 30.853 30.521C30.853 30.521 28.9965 14.7007 43.2174 14.6934C58.5894 14.6934 57.1339 29.0293 57.1339 29.0293Z" fill="#F5B087"/>
<path d="M56.9049 35.4365C56.9049 35.4365 55.1078 42.8727 51.3576 42.1306C49.9263 41.8202 48.5306 41.3672 47.1916 40.7785V40.7785C45.0762 39.893 42.6931 39.8692 40.5601 40.7124V40.7124C39.1594 41.3236 37.702 41.7986 36.2084 42.1306C32.4954 42.8654 31.1661 36.0831 31.1661 36.0831C30.7715 39.2103 31.2867 42.3839 32.6513 45.2314C33.1488 46.4717 33.8957 47.599 34.8467 48.545C35.7977 49.4911 36.933 50.2362 38.1837 50.7351V50.7351L38.3842 50.8086C41.6825 52.0364 45.3021 52.1322 48.6619 51.0804V51.0804C50.9714 50.522 53.6151 49.001 55.3454 45.202C56.7118 42.1356 57.2492 38.7704 56.9049 35.4365Z" fill="#291C1C"/>
<path d="M38.9261 33.7171C38.9261 34.0191 38.8048 34.3088 38.589 34.5224C38.3731 34.736 38.0804 34.856 37.7751 34.856C37.4698 34.856 37.177 34.736 36.9612 34.5224C36.7453 34.3088 36.624 34.0191 36.624 33.7171C36.624 33.415 36.7453 33.1253 36.9612 32.9117C37.177 32.6981 37.4698 32.5781 37.7751 32.5781C38.0804 32.5781 38.3731 32.6981 38.589 32.9117C38.8048 33.1253 38.9261 33.415 38.9261 33.7171V33.7171Z" fill="#1F0004"/>
<path d="M50.2357 33.7532C50.2357 33.9788 50.168 34.1993 50.0412 34.3867C49.9144 34.5742 49.7341 34.7202 49.5234 34.8062C49.3126 34.8921 49.0808 34.9143 48.8573 34.8697C48.6338 34.8252 48.4288 34.716 48.2681 34.5559C48.1074 34.3959 47.9984 34.1923 47.9548 33.9709C47.9112 33.7495 47.9351 33.5202 48.0234 33.3123C48.1116 33.1043 48.2603 32.9269 48.4506 32.8026C48.6408 32.6784 48.8641 32.6128 49.0921 32.6143C49.3961 32.6162 49.6869 32.7371 49.9012 32.9505C50.1154 33.1638 50.2357 33.4524 50.2357 33.7532V33.7532Z" fill="#1F0004"/>
<path d="M42.921 34.4746L42.7725 38.3764L44.4285 38.3838" stroke="#1F0004" stroke-width="0.432353" stroke-linecap="round" stroke-linejoin="round"/>
<path d="M46.3523 25.972C46.3523 25.972 46.0181 27.1991 47.9415 27.2285C49.3202 27.2961 50.6898 27.488 52.0333 27.8016C52.2568 27.8555 52.4915 27.8431 52.7081 27.766C52.9246 27.689 53.1135 27.5506 53.2511 27.3681V27.3681C53.3413 27.2372 53.3798 27.0781 53.3593 26.9209C53.3387 26.7638 53.2606 26.6196 53.1398 26.5157C51.9184 25.5871 50.4501 25.0305 48.9143 24.9138C46.6196 24.8624 46.3523 25.972 46.3523 25.972Z" fill="#1F0004"/>
<path d="M40.4625 26.0022C40.4625 26.0022 40.7967 27.2293 38.8734 27.2587C37.4947 27.3264 36.1251 27.5183 34.7816 27.8319C34.558 27.8858 34.3233 27.8734 34.1068 27.7963C33.8902 27.7192 33.7014 27.5808 33.5637 27.3984V27.3984C33.4735 27.2674 33.4351 27.1083 33.4556 26.9512C33.4761 26.7941 33.5542 26.6499 33.6751 26.546C34.8965 25.6173 36.3647 25.0607 37.9005 24.9441C40.1878 24.8927 40.4625 26.0022 40.4625 26.0022Z" fill="#1F0004"/>
<path d="M41.7246 43.0045C41.7246 43.0045 44.5094 44.0993 46.3214 42.2256" stroke="white" stroke-width="0.432353" stroke-linecap="round" stroke-linejoin="round"/>
<path d="M57.0164 20.9092C53.5331 18.5975 49.5319 17.1629 45.3606 16.73C41.1893 16.2972 36.9743 16.8793 33.0821 18.4256C33.0821 18.4256 26.6066 10.5412 36.6466 7.6387C46.6867 4.73624 56.0955 13.3628 57.0164 20.9092Z" fill="#200803"/>
<path d="M19.2391 65.1738C19.2391 65.1738 7.90688 68.3041 5.28547 91.4871C2.58238 115.5 -3.5293 164.188 -3.5293 164.188L12.9492 164.622L25.3062 83.8672L19.2391 65.1738Z" fill="white"/>
<path d="M32.6215 59.5898L27.1484 69.7375V137.758H60.4321V66.6586L55.0631 59.5898H32.6215Z" fill="#8BD5EE"/>
<path d="M51.0824 57.1426L44.4138 63.7999L36.6016 57.2234L51.0824 57.1426Z" fill="#F5B087"/>
<path d="M36.6005 57.2236L32.6201 59.5897L38.509 69.7373L44.4127 63.8001L36.6005 57.2236Z" fill="#AFE2FD"/>
<path d="M51.0825 57.1426L55.0628 59.5895L50.3399 69.7371L44.4287 63.7999L51.0825 57.1426Z" fill="#AFE2FD"/>
<path d="M32.6202 59.5898L19.2384 65.167L17.2334 196.895H37.061L32.6202 59.5898Z" fill="white"/>
<path d="M32.3167 59.9199L23.2197 69.7369L29.5467 73.8958L25.3065 78.7823L34.5148 118.212" stroke="#CFEAE7" stroke-width="0.935294" stroke-linecap="round" stroke-linejoin="round"/>
<path d="M55.0624 59.5898L68.4516 65.167L72.3354 196.895H52.5078L55.0624 59.5898Z" fill="white"/>
<path d="M55.5307 59.9199L64.6277 69.7369L58.3007 73.8958L62.541 78.7823L53.3252 118.212" stroke="#CFEAE7" stroke-width="0.935294" stroke-linecap="round" stroke-linejoin="round"/>
<path d="M66.4024 64.5059C66.4024 64.5059 78.1282 65.564 84.9676 87.9019C88.1271 98.2031 90.7373 108.662 92.7873 119.234C93.5819 123.408 92.0446 129.866 87.8786 130.756C83.9576 131.593 78.7965 126.964 77.4821 123.209L63.8701 83.9781L66.4024 64.5059Z" fill="white"/>
<path d="M55.1365 104.052L62.7111 87.9968L93.5293 82.3389L74.6151 112.385L69.7881 116.897L62.3249 118.212L53.4805 111.158L55.1365 104.052Z" fill="#2862B7"/>
<path d="M37.0387 38.9927C40.1106 38.9927 42.6008 36.5286 42.6008 33.489C42.6008 30.4494 40.1106 27.9854 37.0387 27.9854C33.9668 27.9854 31.4766 30.4494 31.4766 33.489C31.4766 36.5286 33.9668 38.9927 37.0387 38.9927Z" stroke="white" stroke-width="0.732353" stroke-miterlimit="10"/>
<path d="M50.9332 38.9927C54.0051 38.9927 56.4954 36.5286 56.4954 33.489C56.4954 30.4494 54.0051 27.9854 50.9332 27.9854C47.8613 27.9854 45.3711 30.4494 45.3711 33.489C45.3711 36.5286 47.8613 38.9927 50.9332 38.9927Z" stroke="white" stroke-width="0.732353" stroke-miterlimit="10"/>
<path d="M45.3799 33.4899C44.0952 32.3656 42.6025 33.4899 42.6025 33.4899" stroke="white" stroke-width="0.732353" stroke-miterlimit="10"/>
</g>
</g>
<defs>
<clipPath id="clip0_523_2023">
<rect width="90" height="90" rx="45" fill="white"/>
</clipPath>
<clipPath id="clip1_523_2023">
<rect width="97.0588" height="307.059" fill="white" transform="translate(-3.5293 7.05859)"/>
</clipPath>
</defs>
</svg>
