<svg width="70" height="67" viewBox="0 0 70 67" fill="none" xmlns="http://www.w3.org/2000/svg">
<g clip-path="url(#clip0_523_3420)">
<rect x="0.455078" y="0.296997" width="69" height="66" rx="33" fill="#FFDB7C"/>
<g clip-path="url(#clip1_523_3420)">
<path d="M25.3792 32.6035C25.4007 33.4922 25.1594 34.3673 24.6857 35.1183C24.212 35.8693 23.5273 36.4623 22.7181 36.8225C21.9089 37.1827 21.0115 37.2938 20.1394 37.1418C19.2673 36.9898 18.4596 36.5816 17.8185 35.9686C17.1774 35.3557 16.7317 34.5656 16.5376 33.6983C16.3436 32.8309 16.4099 31.9253 16.7283 31.0958C17.0466 30.2663 17.6027 29.5503 18.3263 29.0382C19.0498 28.5261 19.9083 28.2409 20.7931 28.2188C21.3809 28.2041 21.9659 28.3058 22.5145 28.5183C23.0632 28.7307 23.5648 29.0496 23.9907 29.4568C24.4166 29.864 24.7584 30.3515 24.9967 30.8914C25.2349 31.4313 25.3649 32.0131 25.3792 32.6035V32.6035Z" fill="#F5B087"/>
<path d="M18.3896 32.085C18.3896 32.085 20.1731 31.2205 21.8326 34.3327" stroke="#1F0004" stroke-width="0.49" stroke-linecap="round" stroke-linejoin="round"/>
<path d="M41.7608 32.7765C41.7567 33.6676 42.016 34.5398 42.5057 35.2827C42.9955 36.0257 43.6938 36.606 44.5121 36.9501C45.3305 37.2943 46.2321 37.3868 47.1029 37.216C47.9736 37.0452 48.7743 36.6187 49.4036 35.9906C50.0328 35.3625 50.4624 34.561 50.6378 33.6875C50.8132 32.8141 50.7267 31.908 50.389 31.084C50.0514 30.26 49.4779 29.5551 48.7412 29.0586C48.0045 28.5622 47.1376 28.2964 46.2505 28.295C45.0639 28.2932 43.9251 28.7639 43.0835 29.6039C42.2419 30.444 41.7663 31.5849 41.7608 32.7765V32.7765Z" fill="#F5B087"/>
<path d="M48.7916 32.085C48.7916 32.085 46.9875 31.262 45.3486 34.4087" stroke="#1F0004" stroke-width="0.49" stroke-linecap="round" stroke-linejoin="round"/>
<path d="M25.9096 12.3192C25.9096 12.3192 22.1568 10.8254 19.0994 15.6319C14.5615 22.7691 23.0244 34.118 23.0244 34.118L25.9096 12.3192Z" fill="#200803"/>
<path d="M41.1416 12.3192C41.1416 12.3192 44.8945 10.8254 47.9518 15.6319C52.4897 22.7691 44.0268 34.118 44.0268 34.118L41.1416 12.3192Z" fill="#200803"/>
<path d="M33.3607 38.6963C41.1759 38.6963 47.5114 32.3333 47.5114 24.4842C47.5114 16.6351 41.1759 10.2721 33.3607 10.2721C25.5455 10.2721 19.21 16.6351 19.21 24.4842C19.21 32.3333 25.5455 38.6963 33.3607 38.6963Z" fill="#200803"/>
<path d="M38.6693 42.4588C38.6693 42.4588 36.7619 44.9346 34.4619 45.3703C32.8797 45.5613 31.2784 45.2338 29.8965 44.4367C29.8965 44.4367 27.7688 41.9816 27.7688 41.9816L26.667 52.141L40.0947 52.058L38.6693 42.4588Z" fill="#F5B087"/>
<path d="M28.4365 44.9L39.9499 51.062L38.6622 42.4518L28.4365 44.9Z" fill="#E09069"/>
<path d="M45.707 24.9754C45.7063 29.2116 45.2281 33.4341 44.2816 37.5623C43.593 40.6122 41.5892 42.7492 38.7728 44.4781L38.2564 44.7962C36.7752 45.6905 35.0837 46.1728 33.3556 46.1934C31.6275 46.2141 29.9251 45.7724 28.4232 44.9138V44.9138C25.3796 43.1503 23.2518 40.8196 22.6251 37.5484C21.8948 33.8667 21.4641 30.1313 21.3375 26.3793C21.3375 26.3793 19.616 11.4895 32.8026 11.4825C47.0567 11.4825 45.707 24.9754 45.707 24.9754Z" fill="#F5B087"/>
<path d="M45.4933 31.0061C45.4933 31.0061 43.8269 38.005 40.3495 37.3065C39.0223 37.0144 37.728 36.588 36.4864 36.0339V36.0339C34.5249 35.2004 32.3151 35.1781 30.3372 35.9717V35.9717C29.0384 36.547 27.687 36.994 26.302 37.3065C22.859 37.998 21.6264 31.6147 21.6264 31.6147C21.2605 34.5579 21.7383 37.5449 23.0036 40.2249C23.465 41.3922 24.1576 42.4533 25.0394 43.3437C25.9212 44.2341 26.974 44.9354 28.1337 45.4049V45.4049L28.3196 45.4741C31.378 46.6297 34.7343 46.7199 37.8498 45.73V45.73C39.9914 45.2044 42.4428 43.7728 44.0472 40.1973C45.3143 37.3112 45.8126 34.1439 45.4933 31.0061Z" fill="#291C1C"/>
<path d="M28.8222 29.3875C28.8222 29.6718 28.7097 29.9445 28.5096 30.1455C28.3094 30.3465 28.0379 30.4595 27.7548 30.4595C27.4718 30.4595 27.2003 30.3465 27.0001 30.1455C26.7999 29.9445 26.6875 29.6718 26.6875 29.3875C26.6875 29.1032 26.7999 28.8305 27.0001 28.6295C27.2003 28.4285 27.4718 28.3156 27.7548 28.3156C28.0379 28.3156 28.3094 28.4285 28.5096 28.6295C28.7097 28.8305 28.8222 29.1032 28.8222 29.3875V29.3875Z" fill="#1F0004"/>
<path d="M39.3095 29.4222C39.3095 29.6345 39.2467 29.842 39.1291 30.0185C39.0115 30.1949 38.8444 30.3323 38.649 30.4132C38.4535 30.4941 38.2386 30.5149 38.0314 30.473C37.8241 30.4311 37.634 30.3283 37.485 30.1777C37.336 30.0271 37.2349 29.8355 37.1945 29.6271C37.1541 29.4187 37.1762 29.2029 37.258 29.0072C37.3399 28.8114 37.4778 28.6445 37.6542 28.5275C37.8306 28.4106 38.0376 28.3489 38.249 28.3502C38.5309 28.3521 38.8006 28.4658 38.9993 28.6666C39.198 28.8675 39.3095 29.1391 39.3095 29.4222V29.4222Z" fill="#1F0004"/>
<path d="M32.5264 30.1002L32.3887 33.7725L33.9243 33.7795" stroke="#1F0004" stroke-width="0.49" stroke-linecap="round" stroke-linejoin="round"/>
<path d="M35.7081 22.0982C35.7081 22.0982 35.3982 23.2532 37.1817 23.2808C38.4601 23.3445 39.7301 23.5251 40.9759 23.8203C41.1832 23.871 41.4008 23.8593 41.6016 23.7868C41.8024 23.7142 41.9776 23.584 42.1052 23.4122V23.4122C42.1888 23.289 42.2245 23.1393 42.2055 22.9914C42.1864 22.8435 42.114 22.7078 42.0019 22.61C40.8694 21.736 39.5079 21.2121 38.0838 21.1023C35.956 21.0539 35.7081 22.0982 35.7081 22.0982Z" fill="#1F0004"/>
<path d="M30.2475 22.1261C30.2475 22.1261 30.5573 23.281 28.7739 23.3087C27.4954 23.3724 26.2255 23.5529 24.9797 23.8481C24.7724 23.8988 24.5547 23.8872 24.354 23.8146C24.1532 23.7421 23.978 23.6118 23.8504 23.4401V23.4401C23.7668 23.3169 23.7311 23.1671 23.7501 23.0192C23.7692 22.8713 23.8416 22.7356 23.9537 22.6378C25.0862 21.7638 26.4477 21.2399 27.8718 21.1302C29.9927 21.0818 30.2475 22.1261 30.2475 22.1261Z" fill="#1F0004"/>
<path d="M31.418 38.1292C31.418 38.1292 34.0002 39.1597 35.6804 37.3961" stroke="white" stroke-width="0.49" stroke-linecap="round" stroke-linejoin="round"/>
<path d="M45.597 17.3333C42.367 15.1575 38.6568 13.8073 34.7889 13.3999C30.9209 12.9925 27.0125 13.5403 23.4034 14.9957C23.4034 14.9957 17.3988 7.57498 26.7087 4.84322C36.0185 2.11145 44.7431 10.2307 45.597 17.3333Z" fill="#200803"/>
<path d="M10.5676 58.9948C10.5676 58.9948 0.0595331 61.9409 -2.37122 83.7604C-4.87773 106.361 -10.5449 152.186 -10.5449 152.186L4.73511 152.594L16.1934 76.5887L10.5676 58.9948Z" fill="white"/>
<path d="M22.9763 53.7384L17.9014 63.2892V127.309H48.7644V60.3915L43.7858 53.7384H22.9763Z" fill="#8BD5EE"/>
<path d="M40.0947 51.4357L33.9111 57.7014L26.667 51.5117L40.0947 51.4357Z" fill="#F5B087"/>
<path d="M26.6675 51.5114L22.9766 53.7383L28.4372 63.2891L33.9115 57.7011L26.6675 51.5114Z" fill="#AFE2FD"/>
<path d="M40.0947 51.4357L43.7856 53.7386L39.4061 63.2895L33.9248 57.7014L40.0947 51.4357Z" fill="#AFE2FD"/>
<path d="M22.9758 53.7384L10.5672 58.9875L8.70801 182.968H27.0936L22.9758 53.7384Z" fill="white"/>
<path d="M22.6941 54.0499L14.2588 63.2895L20.1257 67.2039L16.1938 71.8029L24.7324 108.913" stroke="#CFEAE7" stroke-width="1.06" stroke-linecap="round" stroke-linejoin="round"/>
<path d="M43.7858 53.7384L56.2012 58.9875L59.8026 182.968H41.417L43.7858 53.7384Z" fill="white"/>
<path d="M44.219 54.0499L52.6543 63.2895L46.7875 67.2039L50.7194 71.8029L42.1738 108.913" stroke="#CFEAE7" stroke-width="1.06" stroke-linecap="round" stroke-linejoin="round"/>
<path d="M54.3003 58.3654C54.3003 58.3654 65.1733 59.3612 71.5153 80.3855C74.445 90.0808 76.8653 99.9241 78.7662 109.875C79.503 113.803 78.0776 119.882 74.2146 120.719C70.5788 121.507 65.793 117.15 64.5742 113.616L51.9521 76.6924L54.3003 58.3654Z" fill="white"/>
<path d="M27.0736 34.3532C29.9221 34.3532 32.2312 32.0341 32.2312 29.1733C32.2312 26.3124 29.9221 23.9933 27.0736 23.9933C24.2252 23.9933 21.916 26.3124 21.916 29.1733C21.916 32.0341 24.2252 34.3532 27.0736 34.3532Z" stroke="white" stroke-width="0.83" stroke-miterlimit="10"/>
<path d="M39.9574 34.3532C42.8059 34.3532 45.115 32.0341 45.115 29.1733C45.115 26.3124 42.8059 23.9933 39.9574 23.9933C37.1089 23.9933 34.7998 26.3124 34.7998 29.1733C34.7998 32.0341 37.1089 34.3532 39.9574 34.3532Z" stroke="white" stroke-width="0.83" stroke-miterlimit="10"/>
<path d="M34.8058 29.1735C33.6145 28.1154 32.2305 29.1735 32.2305 29.1735" stroke="white" stroke-width="0.83" stroke-miterlimit="10"/>
</g>
</g>
<defs>
<clipPath id="clip0_523_3420">
<rect x="0.455078" y="0.296997" width="69" height="66" rx="33" fill="white"/>
</clipPath>
<clipPath id="clip1_523_3420">
<rect width="90" height="289" fill="white" transform="translate(-10.5449 4.297)"/>
</clipPath>
</defs>
</svg>
