<svg width="7" height="11" viewBox="0 0 7 11" fill="none" xmlns="http://www.w3.org/2000/svg">
<path d="M4.91269 5.29604L0.750132 1.52067L1.26383 1L6 5.29563L1.26404 9.59783L0.749919 9.07756L4.91269 5.29604Z" fill="white" stroke="white" stroke-linecap="round" stroke-linejoin="round"/>
</svg>
