<svg width="130" height="94" viewBox="0 0 130 94" fill="none" xmlns="http://www.w3.org/2000/svg">
<path d="M115.436 93.9999H14.6995L29.2637 8.82275H130L115.436 93.9999Z" fill="#C2DEEE"/>
<path d="M63.7412 0H30.7742L29.2632 8.82281H64.5447L63.7412 0Z" fill="#C2DEEE"/>
<g opacity="0.1">
<path opacity="0.1" d="M115.436 93.9999H14.6995L29.2637 8.82275H130L115.436 93.9999Z" fill="#AACFE3"/>
<path opacity="0.1" d="M63.7412 0H30.7742L29.2632 8.82281H64.5447L63.7412 0Z" fill="#AACFE3"/>
</g>
<path d="M27.2174 3.6C26.9959 2.62454 26.9959 1.60949 27.2174 0.634033C27.4389 1.60949 27.4389 2.62454 27.2174 3.6Z" fill="#263238"/>
<path d="M24.2875 4.47285C23.9506 4.11313 23.6605 3.70974 23.4246 3.27283C23.1762 2.84552 22.9818 2.38727 22.8459 1.90918C23.1836 2.26703 23.4737 2.66939 23.7089 3.10578C23.9567 3.5346 24.1511 3.99391 24.2875 4.47285Z" fill="#263238"/>
<path d="M22.1718 6.7398C21.2422 6.44978 20.3902 5.94227 19.6821 5.25684C20.1457 5.39568 20.5901 5.59502 21.0046 5.85002C21.428 6.09559 21.82 6.39447 22.1718 6.7398Z" fill="#263238"/>
<path d="M21.4312 9.79435C20.4851 10.0228 19.5007 10.0228 18.5547 9.79435C19.5007 9.56594 20.4851 9.56594 21.4312 9.79435Z" fill="#263238"/>
<path d="M22.2908 12.8149C21.9402 13.1602 21.5493 13.4591 21.127 13.7047C20.7124 13.9597 20.268 14.1591 19.8044 14.2979C20.1533 13.9505 20.5445 13.6514 20.9683 13.4081C21.3821 13.1517 21.8267 12.9523 22.2908 12.8149Z" fill="#263238"/>
<path d="M24.4863 14.9934C24.2043 15.9526 23.7122 16.832 23.0481 17.5639C23.3372 16.6079 23.8284 15.73 24.4863 14.9934Z" fill="#263238"/>
<path d="M27.4484 15.7468C27.6688 16.7224 27.6688 17.7372 27.4484 18.7128C27.329 18.2283 27.2734 17.7295 27.2831 17.2298C27.2766 16.7302 27.3322 16.2319 27.4484 15.7468Z" fill="#263238"/>
<path d="M30.3774 14.8911C30.7144 15.2508 31.0044 15.6542 31.2404 16.0911C31.4891 16.5178 31.6825 16.9763 31.8157 17.4548C31.1515 16.7229 30.6595 15.8434 30.3774 14.8843V14.8911Z" fill="#263238"/>
<path d="M32.4912 12.6069C32.9553 12.7443 33.3999 12.9437 33.8137 13.2001C34.2375 13.4434 34.6287 13.7425 34.9775 14.0899C34.5135 13.9525 34.0689 13.7531 33.655 13.4967C33.2313 13.2534 32.8401 12.9543 32.4912 12.6069Z" fill="#263238"/>
<path d="M33.2212 9.55244C34.1683 9.32399 35.1538 9.32399 36.101 9.55244C35.1538 9.78089 34.1683 9.78089 33.2212 9.55244Z" fill="#263238"/>
<path d="M32.3755 6.53178C32.7253 6.18653 33.1164 5.88867 33.5393 5.64542C33.952 5.38593 34.3969 5.18525 34.8618 5.04883C34.1521 5.73362 33.2991 6.241 32.3689 6.53178H32.3755Z" fill="#263238"/>
<path d="M30.1768 4.35347C30.3135 3.87627 30.5067 3.41826 30.7521 2.98981C30.988 2.5529 31.2781 2.14952 31.615 1.78979C31.4818 2.26829 31.2884 2.72673 31.0397 3.15345C30.8037 3.59036 30.5137 3.99374 30.1768 4.35347Z" fill="#263238"/>
<path d="M115.287 94.0001H14.3361L0 11.915H100.954L115.287 94.0001Z" fill="#E2EFF7"/>
<path d="M34.9848 62.0938C37.302 62.0938 39.1805 60.1569 39.1805 57.7676C39.1805 55.3783 37.302 53.4414 34.9848 53.4414C32.6675 53.4414 30.7891 55.3783 30.7891 57.7676C30.7891 60.1569 32.6675 62.0938 34.9848 62.0938Z" fill="#263238"/>
<path d="M68.1535 62.0938C70.4707 62.0938 72.3491 60.1569 72.3491 57.7676C72.3491 55.3783 70.4707 53.4414 68.1535 53.4414C65.8362 53.4414 63.9578 55.3783 63.9578 57.7676C63.9578 60.1569 65.8362 62.0938 68.1535 62.0938Z" fill="#263238"/>
<path d="M57.5953 62.7859L57.3639 62.3325C57.3441 62.2916 55.1751 58.1597 50.8141 58.1597C46.8466 58.1597 45.8547 62.0495 45.8282 62.2166L45.7092 62.7109L44.7471 62.4722L44.8628 61.9745C44.8628 61.9268 46.0464 57.137 50.8141 57.137C55.7736 57.137 58.1442 61.6643 58.2434 61.8586L58.4748 62.3086L57.5953 62.7859Z" fill="#263238"/>
</svg>
