
<svg width="183" height="137" viewBox="0 0 183 137" fill="none" xmlns="http://www.w3.org/2000/svg">
<ellipse cx="91.5" cy="112.5" rx="91.5" ry="24.5" fill="#DEEBF3"/>
<g clip-path="url(#clip0_140_4646)">
<path d="M85.5 10H86L91 56L89.5 55L85.5 10Z" fill="#7295AC"/>
<path d="M137.68 100.121C137.7 97.2428 135.695 93.7276 133.198 92.2719C131.893 91.5072 130.715 91.4737 129.88 92.017L126.812 93.7343L133.238 104.776L136.28 103.059L136.274 103.052C137.135 102.603 137.673 101.59 137.68 100.121Z" fill="#37474F"/>
<path d="M130.015 94.0697C132.505 95.5254 134.511 99.0405 134.497 101.918C134.477 104.796 132.444 105.95 129.948 104.494C127.458 103.039 125.452 99.5235 125.466 96.6457C125.486 93.7678 127.525 92.614 130.015 94.0697Z" fill="#455A64"/>
<path d="M128.46 98.3963C128.467 97.2694 129.16 96.7595 130.002 97.2492C130.843 97.7389 131.522 99.0537 131.516 100.181C131.509 101.308 130.816 101.818 129.975 101.328C129.127 100.831 128.447 99.5166 128.46 98.3963Z" fill="#263238"/>
<path opacity="0.15" d="M134.497 101.918C134.504 100.946 134.275 99.9059 133.885 98.8997L126.098 94.3984C125.708 94.9418 125.479 95.6998 125.472 96.6524C125.472 96.686 125.479 96.7262 125.479 96.7598L134.497 101.979C134.49 101.959 134.497 101.939 134.497 101.918Z" fill="black"/>
<path d="M105.458 124.666C103.749 124.76 102.012 124.485 100.666 123.808L58.2415 99.4433C55.6774 98.1554 52.7971 94.8146 52.6221 91.655L51.3165 61.5282L53.6787 61.394L54.9843 91.5209C55.1054 93.6742 57.3666 96.3643 59.3048 97.3369L101.73 121.701C103.695 122.687 107.019 122.493 108.85 121.292L137.142 105.045C137.822 104.602 138.205 104.072 138.178 103.629C138.151 103.187 137.727 102.73 137.014 102.375L91.5945 76.0919C89.0371 74.8106 86.1702 71.4632 85.9885 68.2969L85.3559 51.5866L87.7181 51.4524L88.3507 68.1627C88.4718 70.316 90.7263 73.0128 92.651 73.9788L138.071 100.262C139.585 101.02 140.466 102.167 140.54 103.495C140.614 104.81 139.847 106.091 138.434 107.017L110.142 123.264C108.883 124.09 107.181 124.566 105.458 124.666Z" fill="#455A64"/>
<path d="M97.8263 123.989C97.8465 121.111 95.841 117.596 93.3442 116.14C92.0387 115.375 90.8609 115.342 90.0264 115.885L86.9576 117.602L93.3846 128.644L96.4265 126.927L96.4198 126.92C97.2812 126.471 97.8196 125.458 97.8263 123.989Z" fill="#37474F"/>
<path d="M90.1678 117.938C92.6579 119.394 94.6633 122.909 94.6499 125.787C94.6297 128.664 92.5973 129.818 90.1005 128.363C87.6105 126.907 85.605 123.392 85.6185 120.514C85.6387 117.636 87.6711 116.482 90.1678 117.938Z" fill="#455A64"/>
<path d="M88.6065 122.265C88.6132 121.138 89.3064 120.628 90.1476 121.117C90.9888 121.607 91.6686 122.922 91.6618 124.049C91.6551 125.176 90.9619 125.686 90.1207 125.196C89.2727 124.7 88.5998 123.385 88.6065 122.265Z" fill="#263238"/>
<path d="M66.4923 105.977C66.5192 103.099 64.5137 99.5775 62.0304 98.1218C60.7248 97.3571 59.5471 97.3168 58.7126 97.8602L55.6438 99.5708L62.0506 110.626L65.0925 108.915L65.0857 108.909C65.9404 108.459 66.4788 107.446 66.4923 105.977Z" fill="#37474F"/>
<path d="M58.8404 99.9131C61.3304 101.376 63.3292 104.891 63.3023 107.769C63.2821 110.646 61.2429 111.8 58.7529 110.338C56.2629 108.875 54.2641 105.36 54.291 102.482C54.318 99.6046 56.3504 98.4574 58.8404 99.9131Z" fill="#455A64"/>
<path d="M57.2724 104.233C57.2791 103.106 57.9723 102.596 58.8135 103.092C59.6547 103.589 60.3345 104.897 60.321 106.024C60.3143 107.151 59.6211 107.661 58.7799 107.164C57.9386 106.675 57.2657 105.36 57.2724 104.233Z" fill="#263238"/>
<path d="M46.2827 25.0216C45.3809 22.1035 46.7403 18.3402 49.3044 16.6631L77.509 0.77124C80.0731 -0.905827 82.8794 0.261411 83.7812 3.17951L85.7396 9.5054L83.8014 10.6324L81.7084 4.23941C81.2104 2.6898 79.6895 2.15985 78.33 3.05876L50.8589 18.5414C49.2169 19.6282 48.3285 22.0566 48.8804 23.9349L50.5359 30.0059L48.2276 31.3475L46.2827 25.0216Z" fill="#455A64"/>
<path d="M89.8851 55.5042L51.9962 77.3128L107.369 109.177L145.258 87.3685L89.8851 55.5042Z" fill="#5E8198"/>
<path d="M48.2343 31.3477L85.7328 9.50562L89.8851 55.5042L51.9962 77.3127L48.2343 31.3477Z" fill="#8CB1C9"/>
<path d="M85.7327 9.50562L89.885 55.5042L145.258 87.3618L154 48.7825L85.7327 9.50562ZM105.094 53.7265C103.567 54.3101 101.79 53.3978 101.124 51.6738L91.9712 28.0003C91.3049 26.283 92.0048 24.4114 93.5325 23.8278C95.0602 23.2441 96.8368 24.1565 97.5031 25.8805L106.656 49.554C107.322 51.2713 106.622 53.1429 105.094 53.7265ZM122.383 61.8368C120.856 62.4204 119.079 61.5081 118.413 59.7841L109.26 36.1106C108.594 34.3933 109.294 32.5217 110.821 31.9381C112.349 31.3544 114.126 32.2668 114.792 33.9908L123.945 57.6643C124.611 59.3816 123.911 61.2532 122.383 61.8368ZM139.672 69.9471C138.144 70.5307 136.368 69.6184 135.701 67.8944L126.549 44.2209C125.883 42.5036 126.583 40.632 128.11 40.0484C129.638 39.4647 131.415 40.3771 132.081 42.1011L141.233 65.7746C141.9 67.4919 141.2 69.3635 139.672 69.9471Z" fill="#7295AC"/>
<path d="M48.2343 31.3478L51.9962 77.3128L107.369 109.184L116.111 70.6045L48.2343 31.3478ZM70.0927 76.595C68.565 77.1786 66.7884 76.2663 66.1221 74.5423L56.9696 50.8688C56.3033 49.1515 57.0032 47.2799 58.5309 46.6963C60.0585 46.1127 61.8352 47.025 62.5015 48.749L71.654 72.4225C72.3203 74.1398 71.6204 76.0047 70.0927 76.595ZM87.3816 84.6986C85.8539 85.2822 84.0772 84.3699 83.411 82.6526L74.2652 58.9791C73.5989 57.2618 74.2988 55.3902 75.8265 54.8066C77.3542 54.223 79.1308 55.1353 79.7971 56.8593L88.9496 80.5328C89.6092 82.2434 88.9093 84.115 87.3816 84.6986ZM104.67 92.8089C103.143 93.3925 101.366 92.4802 100.7 90.7562L91.5473 67.0827C90.8811 65.3654 91.581 63.4938 93.1087 62.9102C94.6363 62.3265 96.413 63.2389 97.0793 64.9629L106.232 88.6364C106.898 90.3537 106.198 92.2253 104.67 92.8089Z" fill="#BEDBEB"/>
<path d="M116.118 70.6047L154 48.7961L145.258 87.3754L107.369 109.177L116.118 70.6047Z" fill="#598DAF"/>
</g>
<defs>
<clipPath id="clip0_140_4646">
<rect width="108" height="129" fill="white" transform="translate(46)"/>
</clipPath>
</defs>
</svg>
