<svg width="40" height="40" viewBox="0 0 40 40" fill="none" xmlns="http://www.w3.org/2000/svg">
<path d="M19.9998 0C8.97195 0 0 8.97205 0 20C0 31.0271 8.97195 40 19.9998 40C31.0268 40 39.9996 31.0271 39.9996 20C39.9996 8.97205 31.0284 0 19.9998 0ZM24.9735 20.7041H21.7197C21.7197 25.9027 21.7197 32.3016 21.7197 32.3016H16.8982C16.8982 32.3016 16.8982 25.9647 16.8982 20.7041H14.6063V16.6052H16.8982V13.9539C16.8982 12.0551 17.8005 9.08805 21.764 9.08805L25.3369 9.10175V13.0806C25.3369 13.0806 23.1658 13.0806 22.7436 13.0806C22.3215 13.0806 21.7213 13.2917 21.7213 14.1972V16.606H25.3949L24.9735 20.7041Z" fill="#0071BC"/>
</svg>
