<svg width="253" height="179" viewBox="0 0 253 179" fill="none" xmlns="http://www.w3.org/2000/svg">
<rect y="118" width="250" height="44" rx="22" fill="#E6F5FF"/>
<path d="M60.249 12.5H189.749C191.958 12.5 193.749 14.2909 193.749 16.5V146C193.749 148.209 191.958 150 189.749 150H60.249C58.0399 150 56.249 148.209 56.249 146V16.5C56.249 14.2909 58.0399 12.5 60.249 12.5Z" fill="#C2DEEE"/>
<path d="M137.5 12.5L137.5 62.5L130.801 57.0189L125.662 62.5L119.153 57.0189L112.5 62.5L112.5 12.5L137.5 12.5Z" fill="#F1FAFE"/>
<path d="M106.832 75.5176C106.832 80.0583 103.151 83.7392 98.6108 83.7392C94.0701 83.7392 90.3892 80.0583 90.3892 75.5176" stroke="#91B9CF" stroke-width="3" stroke-linecap="round"/>
<path d="M154.792 75.5176C154.792 80.0583 151.111 83.7392 146.571 83.7392C142.03 83.7392 138.349 80.0583 138.349 75.5176" stroke="#91B9CF" stroke-width="3" stroke-linecap="round"/>
<path d="M108.557 112.515C108.557 107.974 115.919 104.293 125 104.293C134.081 104.293 141.443 107.974 141.443 112.515" stroke="#91B9CF" stroke-width="3" stroke-linecap="round"/>
<path d="M247.797 163.161L218.465 133.093C215.591 130.147 210.895 130.11 207.976 133.011C205.058 135.912 205.021 140.652 207.895 143.598L237.226 173.666C240.1 176.612 244.796 176.648 247.715 173.747C250.634 170.847 250.67 166.107 247.797 163.161Z" fill="#C2DEEE"/>
<path d="M206.266 85.2848C221.049 96.6055 223.95 117.881 212.731 132.812C201.515 147.733 180.428 150.658 165.645 139.337C150.854 128.012 147.961 106.727 159.176 91.8059C170.392 76.8799 191.474 73.9641 206.266 85.2848Z" fill="#AACFE3"/>
<path d="M203.762 88.6151C216.723 98.5408 219.267 117.195 209.43 130.285C199.596 143.368 181.108 145.932 168.147 136.007C155.178 126.077 152.641 107.415 162.475 94.3325C172.308 81.2459 190.793 78.6894 203.762 88.6151Z" fill="#F1FAFE"/>
<path d="M196.394 149.134C176.277 154.948 155.225 143.153 149.47 122.848C143.71 102.543 155.395 81.2932 175.512 75.4835C195.628 69.6695 216.68 81.4645 222.436 101.77C228.196 122.075 216.511 143.325 196.394 149.134ZM176.708 79.7036C158.897 84.8502 148.552 103.662 153.651 121.64C158.749 139.618 177.387 150.061 195.198 144.914C213.008 139.768 223.354 120.955 218.255 102.977C213.156 84.9995 194.519 74.557 176.708 79.7036Z" fill="#AACFE3"/>
</svg>
