<svg width="179" height="79" viewBox="0 0 179 79" fill="none" xmlns="http://www.w3.org/2000/svg">
<path d="M0.5 43.4701C0.5 37.2542 5.53892 32.2153 11.7547 32.2153H141.734C147.95 32.2153 152.988 37.2542 152.988 43.4701C152.988 49.6859 147.95 54.7248 141.734 54.7248H11.7547C5.53893 54.7248 0.5 49.6859 0.5 43.4701Z" fill="#E2EFF7"/>
<path d="M26.0117 26.2303C26.0117 20.0145 31.0506 14.9756 37.2664 14.9756H167.245C173.461 14.9756 178.5 20.0145 178.5 26.2303C178.5 32.4461 173.461 37.485 167.245 37.485H37.2665C31.0506 37.485 26.0117 32.4461 26.0117 26.2303Z" fill="#E2EFF7"/>
<path d="M22.4863 64.7455C22.4863 57.9776 27.9728 52.4912 34.7406 52.4912H159.711C166.479 52.4912 171.965 57.9776 171.965 64.7455C171.965 71.5133 166.479 76.9998 159.711 76.9998H34.7406C27.9727 76.9998 22.4863 71.5133 22.4863 64.7455Z" fill="#E2EFF7"/>
<g clip-path="url(#clip0_745_3435)">
<path d="M113.965 44.2042L110.004 49.4287L129.195 63.9967L133.156 58.7722L113.965 44.2042Z" fill="#AACFE3"/>
<path d="M149.38 71.6686L145.983 76.1501C145.267 77.0957 143.922 77.2807 142.977 76.5646L125.114 63.0038C124.169 62.2877 123.984 60.9412 124.699 59.9956L128.096 55.5142C128.812 54.5685 130.157 54.3835 131.102 55.0996L148.965 68.6604C149.91 69.3765 150.095 70.7264 149.38 71.6686Z" fill="#8BB8CF"/>
<path d="M105.675 8.80521C117.31 17.6379 119.594 34.2378 110.763 45.8868C101.936 57.5289 85.34 59.8108 73.7053 50.9781C62.0636 42.142 59.7867 25.5353 68.6138 13.8931C77.4409 2.24749 94.0336 -0.0274911 105.675 8.80521Z" fill="#E2EFF7"/>
<path d="M110.941 14.1294C117.772 23.3355 118.039 36.2934 110.76 45.8901C109.257 47.8739 107.528 49.5869 105.631 51.0191L110.941 14.1294Z" fill="white"/>
<path d="M86.3951 3.63135L79.1225 54.1572C77.2359 53.3384 75.4177 52.2728 73.7057 50.9777C71.7369 49.4908 70.0386 47.7708 68.6211 45.8899L73.9831 8.5856C77.6742 5.86179 81.961 4.18639 86.3951 3.63135Z" fill="white"/>
<path d="M103.494 7.32136L96.5676 55.4489C94.8933 55.8978 93.1779 56.1787 91.4453 56.2986L98.8206 5.05322C100.426 5.63567 101.991 6.39286 103.494 7.32136Z" fill="white"/>
<path d="M90.0075 3.4294L82.5363 55.3737C82.2247 55.2881 81.92 55.199 81.6152 55.0996L89.0488 3.43625C89.3672 3.42597 89.6856 3.41912 90.0075 3.4294Z" fill="white"/>
<path d="M67.837 14.9756L64.5192 38.0304C64.2761 37.2766 64.0672 36.5091 63.8926 35.7348L66.5907 16.9833C66.9708 16.3015 67.3851 15.63 67.837 14.9756Z" fill="white"/>
<path d="M97.9064 58.6219C82.0738 63.1582 65.5051 53.9554 60.9751 38.1128C56.4417 22.2701 65.6386 5.69082 81.4712 1.15799C97.3038 -3.37828 113.873 5.82444 118.403 21.6671C122.936 37.5098 113.739 54.0891 97.9064 58.6219ZM82.4128 4.45055C68.3949 8.46603 60.2527 23.1438 64.2656 37.1706C68.2785 51.1974 82.947 59.3448 96.9648 55.3293C110.983 51.3139 119.125 36.6361 115.112 22.6093C111.099 8.58252 96.4307 0.435061 82.4128 4.45055Z" fill="#8BB8CF"/>
<path d="M118.078 14.1299H144.078" stroke="#AACFE3" stroke-width="2" stroke-linecap="round"/>
<path d="M78.8463 25.7755C77.5036 22.2403 79.4044 18.2391 83.0919 16.8384C86.7795 15.4377 90.8573 17.1681 92.2001 20.7032C93.0663 22.9837 92.5828 25.4582 91.1405 27.3033C89.78 29.0439 88.5904 31.3145 89.3749 33.3797L90.0313 35.1078" stroke="#8BB8CF" stroke-width="3" stroke-linecap="round" stroke-linejoin="round"/>
<ellipse cx="92.079" cy="41.7648" rx="2.38077" ry="2.28239" transform="rotate(-20.7985 92.079 41.7648)" fill="#8BB8CF"/>
</g>
<path d="M139.906 36.9854H165.906" stroke="#AACFE3" stroke-width="2" stroke-linecap="round"/>
<path d="M35.8174 54H61.8174" stroke="#AACFE3" stroke-width="2" stroke-linecap="round"/>
<path d="M53.8281 78L107.615 78" stroke="#AACFE3" stroke-width="2" stroke-linecap="round"/>
<path d="M27.8281 31.3643H53.8281" stroke="#AACFE3" stroke-width="2" stroke-linecap="round"/>
<defs>
<clipPath id="clip0_745_3435">
<rect width="90" height="77" fill="white" transform="translate(59.8174)"/>
</clipPath>
</defs>
</svg>
