<svg width="56" height="57" viewBox="0 0 56 57" fill="none" xmlns="http://www.w3.org/2000/svg">
<rect y="0.73053" width="55.9953" height="55.9953" rx="27.9976" fill="#B5C1FF"/>
<g clip-path="url(#clip0_405_2552)">
<path d="M14.6373 11.1229H42.3536C44.3189 11.1229 45.9121 12.7161 45.9121 14.6814V42.3977C45.9121 44.3631 44.3189 45.9563 42.3536 45.9563H14.6373C12.672 45.9563 11.0788 44.3631 11.0788 42.3977V14.6814C11.0788 12.7161 12.672 11.1229 14.6373 11.1229Z" fill="#FFD183"/>
<path d="M31.6616 11.1229L31.6616 23.7896L25.3283 23.7896L25.3283 11.1229L31.6616 11.1229Z" fill="white"/>
<ellipse cx="28.4951" cy="30.1229" rx="9.5" ry="9.5" fill="#64C97F"/>
<path d="M30.5051 31.3314C31.1892 30.6473 33.0668 28.807 34.1848 27.7126C34.662 27.2454 34.6606 26.4772 34.1818 26.0115C33.7161 25.5585 32.9735 25.563 32.5141 26.0224L30.2051 28.3314L29.5051 29.0314L26.7051 31.8314C26.5051 32.0314 26.4051 32.0314 26.3051 32.0314C26.1051 32.0314 26.0061 31.9325 25.9067 31.833L25.9051 31.8314L23.9051 29.9314C23.7051 29.7314 23.4051 29.5314 23.1051 29.5314C22.6051 29.5314 22.2051 29.7314 22.0051 30.2314C21.9213 30.4809 21.8227 30.9519 22.3051 31.5314L25.4051 34.6314C25.4051 34.6314 25.6051 34.8314 25.8051 34.9314C26.0051 35.0314 26.2147 35.0816 26.5051 35.0314C26.7955 34.9812 26.9504 34.8861 27.2051 34.6314L30.5051 31.3314Z" fill="white" stroke="white" stroke-width="0.8"/>
</g>
<defs>
<clipPath id="clip0_405_2552">
<rect width="38" height="35" fill="white" transform="translate(8.99756 11.2281)"/>
</clipPath>
</defs>
</svg>
