<svg width="90" height="83" viewBox="0 0 90 83" fill="none" xmlns="http://www.w3.org/2000/svg">
<rect x="7.41016" y="0.0834961" width="82" height="82" rx="41" fill="#B5C1FF"/>
<g clip-path="url(#clip0_523_2901)">
<path d="M65.1801 29.522H68.1332C68.6837 29.522 69.1279 29.9697 69.1279 30.52V32.3716C69.1279 32.924 68.6816 33.3697 68.1332 33.3697H65.7432V32.6332C65.0237 32.6332 64.3313 32.3465 63.8225 31.836L63.4638 31.4762L65.1801 29.522Z" fill="#E09069"/>
<path d="M65.1797 29.5219L63.4633 31.474L56.0912 29.7562L57.111 27.0195L65.1797 29.5219Z" fill="#E09069"/>
<path d="M57.1114 27.0195L57.4722 27.1304L57.5869 30.1035L56.0916 29.7562L57.1114 27.0195Z" fill="#CE7C5B"/>
<path d="M42.9946 16.4348C43.9664 15.669 45.3679 15.8071 46.1749 16.7444L53.8224 25.645L55.2051 26.1115L53.9204 29.5575L53.1947 29.4006C52.0477 29.1516 51.0007 28.5616 50.1916 27.7079L42.7464 19.8598C41.8059 18.8702 41.9206 17.2801 42.9946 16.4348Z" fill="#5297F4"/>
<path d="M53.879 29.6684L53.9207 29.5596L55.2054 26.1136L55.3326 25.7726C55.4056 25.578 55.6225 25.4776 55.8164 25.5508L57.0802 26.0258C57.2742 26.099 57.3743 26.3166 57.3013 26.5112L57.1991 26.7874L55.9979 30.0095L55.8498 30.407C55.7768 30.6016 55.5599 30.702 55.366 30.6288L54.1022 30.1538C53.9061 30.0806 53.806 29.863 53.879 29.6684Z" fill="#3985D8"/>
<path d="M45.691 17.1169C44.9798 16.2883 43.7932 16.0665 42.8318 16.5792C42.8839 16.5289 42.9382 16.4808 42.9966 16.4348C43.9684 15.669 45.3698 15.8071 46.1769 16.7444L53.8244 25.645L55.207 26.1115L55.0006 26.6639L53.449 26.1387L45.691 17.1169Z" fill="#5DABFF"/>
<path d="M45.6556 34.9556L61.595 39.2112C64.3499 39.9477 65.6366 43.1259 64.1685 45.5801L54.8776 61.1236L49.7036 58.82L57.1383 44.6365L41.9977 41.4625C39.0697 40.8474 37.3429 37.7927 38.3252 34.9577H45.6556V34.9556Z" fill="#202334"/>
<path d="M50.3757 59.881L50.7636 59.291L53.7041 60.5987L53.0117 61.8624L49.7354 60.9397C49.9356 60.5798 50.1484 60.2263 50.3757 59.881Z" fill="#E09069"/>
<path d="M51.1828 62.4255L51.4559 63.1243L51.091 62.8669C50.9471 62.7644 50.774 62.71 50.5967 62.71H48.8804C49.1306 62.1032 49.4143 61.5132 49.7354 60.9399L53.0117 61.8626L52.8136 62.2246H51.3204C51.2161 62.2246 51.1452 62.3292 51.1828 62.4255Z" fill="white"/>
<path d="M54.9512 65.4382H48.0066L48.1338 64.9465C48.3298 64.1828 48.5822 63.438 48.8825 62.712H50.5989C50.7761 62.712 50.9492 62.7664 51.0931 62.8689L51.4581 63.1262L51.1849 62.4274C51.1473 62.3312 51.2182 62.2266 51.3225 62.2266H52.8157L53.9189 63.2664C54.4195 63.7372 55.0785 64.0008 55.7646 64.0008H56.5174C57.2536 64.0008 57.8959 64.413 58.2275 65.0218L56.7948 65.2771C56.1838 65.3838 55.5685 65.4382 54.9512 65.4382Z" fill="#422C4F"/>
<path d="M54.9509 65.438C55.5682 65.438 56.1835 65.3836 56.7924 65.2748L58.2251 65.0195C58.3649 65.2769 58.4504 65.5719 58.4629 65.8836L56.2752 66.0824C55.929 66.1138 55.5828 66.1305 55.2346 66.1305H47.8311L48.0084 65.438H54.9509Z" fill="white"/>
<path d="M50.7636 59.291L53.7041 60.5987L53.385 61.1782L50.1838 60.1781L50.7636 59.291Z" fill="#422C4F"/>
<path d="M70.2502 33.5225H71.0031L72.9405 40.3956C74.4566 45.7769 73.8414 51.5306 71.2366 56.4621L70.2919 56.8199L70.2502 33.5225Z" fill="#C8274E"/>
<path d="M72.9381 40.3975L71.0007 33.5244H71.7056L75.6805 48.3272C76.0392 49.66 77.2425 50.5869 78.6189 50.5869C78.7232 50.5869 78.8066 50.6706 78.8066 50.7752V53.5998L71.2322 56.4641C73.8411 51.5326 74.4542 45.7768 72.9381 40.3975Z" fill="#F84671"/>
<path d="M79.3284 79.0815C73.4843 79.0815 68.7467 74.3285 68.7467 68.4653C68.7467 62.6021 73.4843 57.8491 79.3284 57.8491C85.1726 57.8491 89.9102 62.6021 89.9102 68.4653C89.9102 74.3285 85.1726 79.0815 79.3284 79.0815Z" fill="#202334"/>
<path d="M79.3289 76.1106C75.1203 76.1106 71.7085 72.6878 71.7085 68.4655C71.7085 64.2432 75.1203 60.8203 79.3289 60.8203C83.5375 60.8203 86.9492 64.2432 86.9492 68.4655C86.9492 72.6878 83.5375 76.1106 79.3289 76.1106Z" fill="#495375"/>
<path d="M79.3288 74.7066C75.8931 74.7066 73.1078 71.9123 73.1078 68.4654C73.1078 65.0184 75.8931 62.2241 79.3288 62.2241C82.7646 62.2241 85.5498 65.0184 85.5498 68.4654C85.5498 71.9123 82.7646 74.7066 79.3288 74.7066Z" fill="#C7D2D7"/>
<path d="M79.3284 62.2241C80.5025 62.2241 81.6016 62.5505 82.54 63.1196C82.1083 63.0108 81.6537 62.9501 81.1886 62.9501C78.1522 62.9501 75.6913 65.419 75.6913 68.4654C75.6913 71.5117 78.1522 73.9806 81.1886 73.9806C81.6558 73.9806 82.1083 73.922 82.54 73.8111C81.6016 74.3781 80.5046 74.7066 79.3284 74.7066C75.8915 74.7066 73.1074 71.9113 73.1074 68.4654C73.1053 65.0194 75.8915 62.2241 79.3284 62.2241Z" fill="#99A3B0"/>
<path d="M79.3287 71.2188C77.813 71.2188 76.5843 69.986 76.5843 68.4653C76.5843 66.9447 77.813 65.7119 79.3287 65.7119C80.8445 65.7119 82.0732 66.9447 82.0732 68.4653C82.0732 69.986 80.8445 71.2188 79.3287 71.2188Z" fill="#99A3B0"/>
<path d="M78.0153 69.784C77.2897 69.056 77.2897 67.8756 78.0153 67.1476C78.741 66.4196 79.9175 66.4196 80.6431 67.1476C81.3688 67.8756 81.3688 69.056 80.6431 69.784C79.9175 70.512 78.741 70.512 78.0153 69.784Z" fill="#A34262"/>
<path d="M24.97 79.0815C19.1259 79.0815 14.3883 74.3285 14.3883 68.4653C14.3883 62.6021 19.1259 57.8491 24.97 57.8491C30.8141 57.8491 35.5518 62.6021 35.5518 68.4653C35.5518 74.3285 30.8141 79.0815 24.97 79.0815Z" fill="#202334"/>
<path d="M24.9705 76.1106C20.7619 76.1106 17.3501 72.6878 17.3501 68.4655C17.3501 64.2432 20.7619 60.8203 24.9705 60.8203C29.1791 60.8203 32.5908 64.2432 32.5908 68.4655C32.5908 72.6878 29.1791 76.1106 24.9705 76.1106Z" fill="#495375"/>
<path d="M24.9704 74.7066C21.5347 74.7066 18.7494 71.9123 18.7494 68.4654C18.7494 65.0184 21.5347 62.2241 24.9704 62.2241C28.4062 62.2241 31.1914 65.0184 31.1914 68.4654C31.1914 71.9123 28.4062 74.7066 24.9704 74.7066Z" fill="#C7D2D7"/>
<path d="M24.97 62.2241C26.1441 62.2241 27.2432 62.5505 28.1816 63.1196C27.7499 63.0108 27.2953 62.9501 26.8302 62.9501C23.7938 62.9501 21.3329 65.419 21.3329 68.4654C21.3329 71.5117 23.7938 73.9806 26.8302 73.9806C27.2974 73.9806 27.7499 73.922 28.1816 73.8111C27.2453 74.3781 26.1462 74.7066 24.97 74.7066C21.5331 74.7066 18.749 71.9113 18.749 68.4654C18.7469 65.0194 21.5331 62.2241 24.97 62.2241Z" fill="#99A3B0"/>
<path d="M24.9704 71.2188C23.4546 71.2188 22.2259 69.986 22.2259 68.4653C22.2259 66.9447 23.4546 65.7119 24.9704 65.7119C26.4861 65.7119 27.7148 66.9447 27.7148 68.4653C27.7148 69.986 26.4861 71.2188 24.9704 71.2188Z" fill="#99A3B0"/>
<path d="M23.6569 69.784C22.9313 69.056 22.9313 67.8756 23.6569 67.1476C24.3826 66.4196 25.5591 66.4196 26.2847 67.1476C27.0104 67.8756 27.0104 69.056 26.2847 69.784C25.5591 70.512 24.3826 70.512 23.6569 69.784Z" fill="#A34262"/>
<path d="M78.8175 54.4054C73.3661 54.577 68.705 58.4058 67.2556 63.6784L67.02 64.5362L66.7635 64.6617L67.2556 62.8749C68.705 57.6003 73.3682 53.7735 78.8175 53.602C78.9573 53.5978 79.0991 53.5957 79.2409 53.5957C81.5871 53.5957 83.8373 54.2087 85.8164 55.3553L85.4556 55.9579C83.5662 54.941 81.4452 54.3991 79.2409 54.3991C79.0991 54.397 78.9573 54.3991 78.8175 54.4054Z" fill="white"/>
<path d="M77.8232 59.2091L67.0204 64.536L67.2561 63.6782C68.7055 58.4035 73.3686 54.5768 78.818 54.4052C78.9577 54.401 79.0995 54.3989 79.2413 54.3989C81.4457 54.3989 83.5666 54.9408 85.4561 55.9577L83.5166 59.2091H77.8232Z" fill="white"/>
<path d="M66.2521 65.4649H70.8839C70.8839 65.4649 71.8683 61.4708 76.6962 59.866C81.8619 58.1483 85.549 61.7428 85.549 61.7428L89.3926 60.4351L87.499 58.5353C85.3092 56.3384 82.3395 55.104 79.2425 55.104C75.253 55.104 71.5409 57.1461 69.3949 60.5209L66.2521 65.4649Z" fill="#F84671"/>
<path d="M70.2503 33.5225L72.1877 40.3956C73.7414 45.9066 73.0594 51.811 70.292 56.8199L69.3243 58.5711C66.5861 63.5256 61.3849 66.6013 55.7374 66.6013H8.07164L9.77965 60.383C11.4647 54.2485 15.3958 48.9802 20.7889 45.6325L23.8754 43.716H50.3923V44.8772C50.3923 45.6493 49.9022 46.3355 49.1723 46.5803C46.3361 47.5386 44.2985 50.0472 43.9357 53.0287C43.3684 57.6798 46.9867 61.7807 51.6582 61.7807H55.5351C59.2514 61.7807 62.7113 59.8746 64.7029 56.7258L66.5006 53.8865C68.4839 50.7544 69.1616 46.9674 68.39 43.3394L66.3025 33.5225H70.2503Z" fill="#F84671"/>
<path d="M23.8755 43.7162H52.5342V40.3037H29.6815C28.0923 40.3037 26.5699 40.9481 25.4605 42.0884L23.8755 43.7162Z" fill="#202334"/>
<path d="M40.5363 67.0719H53.4037C59.2201 67.0719 64.584 63.9021 67.4015 58.7991L68.3691 57.0479C71.2158 51.8946 71.904 45.9358 70.3065 40.2678C69.7935 38.4434 70.0313 36.4515 70.9614 34.8028C71.0886 34.5769 71.0093 34.2881 70.7841 34.1605C70.5568 34.0329 70.2711 34.1124 70.1439 34.3383C69.0907 36.2067 68.8217 38.4601 69.4035 40.5252C70.9322 45.9525 70.2753 51.6582 67.5495 56.5917L66.5819 58.343C63.9291 63.1468 58.8802 66.1304 53.4058 66.1304H40.5384C40.2777 66.1304 40.0671 66.3417 40.0671 66.6033C40.0671 66.8627 40.2777 67.0719 40.5363 67.0719Z" fill="#FF6E91"/>
<path d="M40.0713 64.7539H10.5888L11.0393 64.9799C11.7609 65.3418 12.739 65.5448 13.7588 65.5448H36.966C38.1944 65.5448 39.3476 65.2498 40.0713 64.7539Z" fill="#C8274E"/>
<path d="M24.0109 63.4777H30.3799C30.5238 63.4777 30.6406 63.3605 30.6406 63.2161C30.6406 63.0718 30.5238 62.9546 30.3799 62.9546H24.0109C23.867 62.9546 23.7502 63.0718 23.7502 63.2161C23.7502 63.3605 23.867 63.4777 24.0109 63.4777Z" fill="#495375"/>
<path d="M24.5589 62.4313H29.8331C29.977 62.4313 30.0938 62.3141 30.0938 62.1697C30.0938 62.0254 29.977 61.9082 29.8331 61.9082H24.5589C24.415 61.9082 24.2982 62.0254 24.2982 62.1697C24.2982 62.3141 24.415 62.4313 24.5589 62.4313Z" fill="#495375"/>
<path d="M25.296 61.3854H29.0958C29.2397 61.3854 29.3564 61.2682 29.3564 61.1238C29.3564 60.9795 29.2397 60.8623 29.0958 60.8623H25.296C25.1521 60.8623 25.0353 60.9795 25.0353 61.1238C25.0353 61.2661 25.1521 61.3854 25.296 61.3854Z" fill="#495375"/>
<path d="M26.1718 60.337H28.2198C28.3637 60.337 28.4805 60.2199 28.4805 60.0755C28.4805 59.9311 28.3637 59.814 28.2198 59.814H26.1718C26.0279 59.814 25.9112 59.9311 25.9112 60.0755C25.9112 60.2199 26.0279 60.337 26.1718 60.337Z" fill="#495375"/>
<path d="M24.5589 64.526H29.8331C29.977 64.526 30.0938 64.4088 30.0938 64.2645C30.0938 64.1201 29.977 64.0029 29.8331 64.0029H24.5589C24.415 64.0029 24.2982 64.1201 24.2982 64.2645C24.2982 64.4088 24.415 64.526 24.5589 64.526Z" fill="#495375"/>
<path d="M20.3138 49.359C23.3482 47.5095 26.8309 46.5303 30.3804 46.5303H31.5712C37.6191 46.5303 42.7473 51.4931 42.7432 57.5607C42.7411 60.31 41.7338 62.8228 40.0717 64.7519H31.7548H23.4379H10.5871L11.7175 60.718C13.0459 55.9769 16.1178 51.9179 20.3138 49.359Z" fill="#FF6E91"/>
<path d="M22.0132 53.481C24.2343 52.1273 26.7848 51.4097 29.3854 51.4097H30.2571C34.6867 51.4097 38.4406 55.0439 38.4385 59.4879C38.4364 61.5007 37.7002 63.3419 36.4823 64.7542H30.3927H24.3031H14.8934L15.7213 61.7999C16.6932 58.3267 18.9413 55.3536 22.0132 53.481Z" fill="#F84671"/>
<path d="M21.8776 63.124H31.8024C31.9589 63.124 32.084 62.9964 32.084 62.8415C32.084 62.6867 31.9568 62.5591 31.8024 62.5591H21.8776C21.7212 62.5591 21.5961 62.6867 21.5961 62.8415C21.5961 62.9964 21.7233 63.124 21.8776 63.124Z" fill="#C8274E"/>
<path d="M22.1843 62.0024H32.1091C32.2655 62.0024 32.3906 61.8748 32.3906 61.72C32.3906 61.563 32.2634 61.4375 32.1091 61.4375H22.1843C22.0279 61.4375 21.9027 61.5651 21.9027 61.72C21.9027 61.8769 22.0279 62.0024 22.1843 62.0024Z" fill="#C8274E"/>
<path d="M22.4909 60.8833H32.4157C32.5721 60.8833 32.6973 60.7556 32.6973 60.6008C32.6973 60.4439 32.5701 60.3184 32.4157 60.3184H22.4909C22.3345 60.3184 22.2094 60.446 22.2094 60.6008C22.2073 60.7556 22.3345 60.8833 22.4909 60.8833Z" fill="#C8274E"/>
<path d="M22.7956 59.7617H32.7204C32.8768 59.7617 33.002 59.6341 33.002 59.4792C33.002 59.3244 32.8747 59.1968 32.7204 59.1968H22.7956C22.6392 59.1968 22.5141 59.3244 22.5141 59.4792C22.5141 59.6341 22.6413 59.7617 22.7956 59.7617Z" fill="#C8274E"/>
<path d="M23.1023 58.6401H33.0271C33.1835 58.6401 33.3086 58.5125 33.3086 58.3576C33.3086 58.2007 33.1814 58.0752 33.0271 58.0752H23.1023C22.9458 58.0752 22.8207 58.2028 22.8207 58.3576C22.8207 58.5125 22.9458 58.6401 23.1023 58.6401Z" fill="#C8274E"/>
<path d="M50.3926 43.7158H23.8757C24.4617 44.3037 25.2584 44.6364 26.0884 44.6364H47.938C48.8389 44.6343 49.7106 44.3079 50.3926 43.7158Z" fill="#C8274E"/>
<path d="M66.2983 33.5224H71.708H74.2002V28.4424H72.4838C71.0115 28.4424 69.5579 28.7667 68.2232 29.3902L66.9531 29.9844C66.1377 30.3652 65.7102 31.2774 65.9396 32.152L66.2983 33.5224Z" fill="#F84671"/>
<path d="M74.2022 28.4424H75.0322V33.5224H74.2022V28.4424Z" fill="white"/>
<path d="M75.0327 28.4424H75.4561V33.5224H75.0327V28.4424Z" fill="white"/>
<path d="M11.3833 42.9882C11.2728 42.8773 11.2728 42.6973 11.3833 42.5885C11.4939 42.4776 11.6711 42.4776 11.7817 42.5885L14.1445 44.9591H13.3458L11.3833 42.9882Z" fill="#C7D2D7"/>
<path d="M14.1467 44.959L17.9757 48.8004C18.0862 48.9113 18.0862 49.0891 17.9757 49.2C17.9215 49.2544 17.8485 49.2837 17.7755 49.2837C17.7025 49.2837 17.6316 49.2565 17.5753 49.2L13.348 44.959H14.1467V44.959Z" fill="white"/>
<path d="M25.7066 46.0365H41.5855C41.8316 46.0365 42.0547 45.8586 42.0798 45.6138C42.1069 45.3314 41.8879 45.0929 41.6126 45.0929H25.7087C24.5909 45.0929 23.5085 44.6618 22.7223 43.8647C21.738 42.8667 20.4262 42.3164 19.0289 42.3164H3.59221C3.34195 42.3164 3.11255 42.4963 3.08961 42.7453C3.06458 43.0257 3.28356 43.26 3.55884 43.26H19.0289C20.1468 43.26 21.2291 43.691 22.0153 44.4882C22.9955 45.4862 24.3094 46.0365 25.7066 46.0365Z" fill="white"/>
<path d="M70.2501 33.522H66.2982L66.3899 33.9509H70.3711L70.2501 33.522Z" fill="#A34262"/>
<path d="M1.57557 25.0903H24.7891V42.316H1.57557V25.0903Z" fill="#F8B84E"/>
<path d="M0.910202 22.2803H25.4521V25.0902H0.910202V22.2803Z" fill="#FFDB9C"/>
<path d="M1.57557 25.0903H24.7891V26.4566H1.57557V25.0903Z" fill="#EBA25D"/>
<path d="M45.6562 34.9556L58.9491 38.9413C61.8896 39.8222 63.2139 43.2493 61.6352 45.8898L52.5279 61.1236L47.3538 58.82L54.7885 44.6365L39.6479 41.4625C36.7199 40.8474 34.9932 37.7927 35.9754 34.9577H45.6562V34.9556Z" fill="#454F6B"/>
<path d="M48.028 59.881L48.4159 59.291L51.3564 60.5987L50.6641 61.8624L47.3878 60.9397C47.588 60.5798 47.7986 60.2263 48.028 59.881Z" fill="#F5B087"/>
<path d="M48.8351 62.4255L49.1083 63.1243L48.7433 62.8669C48.5994 62.7644 48.4263 62.71 48.2491 62.71H46.5327C46.783 62.1032 47.0666 61.5132 47.3878 60.9399L50.6641 61.8626L50.4659 62.2246H48.9727C48.8685 62.2246 48.7976 62.3292 48.8351 62.4255Z" fill="white"/>
<path d="M52.6036 65.4382H45.6589L45.7862 64.9465C45.9822 64.1828 46.2345 63.438 46.5348 62.712H48.2512C48.4285 62.712 48.6016 62.7664 48.7455 62.8689L49.1104 63.1262L48.8372 62.4274C48.7997 62.3312 48.8706 62.2266 48.9749 62.2266H50.4681L51.5713 63.2664C52.0718 63.7372 52.7308 64.0008 53.4169 64.0008H54.1698C54.906 64.0008 55.5483 64.413 55.8799 65.0218L54.4472 65.2771C53.8361 65.3838 53.2209 65.4382 52.6036 65.4382Z" fill="#422C4F"/>
<path d="M52.6033 65.438C53.2206 65.438 53.8358 65.3836 54.4448 65.2748L55.8775 65.0195C56.0172 65.2769 56.1027 65.5719 56.1152 65.8836L53.9276 66.0824C53.5814 66.1138 53.2352 66.1305 52.8869 66.1305H45.4835L45.6607 65.438H52.6033Z" fill="white"/>
<path d="M48.4161 59.291L51.3545 60.5987L51.0375 61.1782L47.8363 60.1781L48.4161 59.291Z" fill="#422C4F"/>
<path d="M48.6071 11.3587L49.0096 9.06771C49.1452 8.30194 49.8084 7.74121 50.5842 7.74121H52.874L52.6696 8.82919C52.5216 9.61589 52.5362 10.4256 52.7114 11.2081L52.8115 11.6517C52.8532 11.84 52.7114 12.0199 52.5195 12.0199H52.0565C51.4642 14.1666 48.8636 15.083 47.0576 13.6895L44.2172 11.501L45.725 12.5576C46.8324 13.3359 48.3715 12.6957 48.6071 11.3587Z" fill="#F5B087"/>
<path d="M53.0225 6.9585L52.8744 7.7431H50.5845C49.8087 7.7431 49.1435 8.30173 49.01 9.0696L48.6075 11.3606C48.3718 12.6976 46.8348 13.3378 45.7254 12.5595L44.2176 11.5029V6.9585H53.0225Z" fill="#E09069"/>
<path d="M44.2152 11.5029L45.6354 11.7017L47.0557 13.6914L46.6782 14.7794L44.2152 11.5029Z" fill="#E09069"/>
<path d="M42.2273 14.5263L44.2148 11.5029L46.6777 14.7794L46.0333 16.6353L42.2273 14.5263Z" fill="#F5B087"/>
<path d="M51.1665 9.55118C51.1227 9.81271 51.2019 10.045 51.3437 10.068C51.4855 10.091 51.6336 9.89849 51.6774 9.63487C51.7212 9.37333 51.6419 9.14109 51.5001 9.11808C51.3583 9.09506 51.2102 9.28755 51.1665 9.55118Z" fill="#422C4F"/>
<path d="M51.8393 8.6284C51.6037 8.49449 51.3388 8.51332 51.1157 8.66188C50.8946 8.80834 50.6902 8.45265 50.9092 8.30619C51.2533 8.07813 51.6913 8.06976 52.0479 8.27271C52.2752 8.40243 52.0687 8.75812 51.8393 8.6284Z" fill="#422C4F"/>
<path d="M51.2809 11.1518L50.8221 11.3108C50.1506 11.5431 49.4227 11.5661 48.7387 11.3736L47.5938 11.0493L47.8628 10.5116L48.7387 10.7564C49.4227 10.9468 50.1506 10.9259 50.8221 10.6936L51.2809 10.5346C51.6876 10.3944 52.1026 10.2856 52.5259 10.2124L52.6907 10.1831L52.8408 10.7815L52.5259 10.8296C52.1046 10.9028 51.6876 11.0116 51.2809 11.1518Z" fill="white"/>
<path d="M47.5934 11.0495L48.7383 11.3739C49.4223 11.5642 50.1502 11.5433 50.8217 11.3111L51.2805 11.1521C51.6872 11.0119 52.1022 10.9031 52.5255 10.8299L52.8404 10.7817L52.8905 10.9784C52.976 11.3215 52.9572 11.6814 52.8383 12.012L52.5818 12.7234C52.1314 13.9704 50.9802 14.8282 49.6601 14.9014C48.8384 14.9474 48.0271 14.6817 47.389 14.1587L46.4338 13.3762L47.5934 11.0495Z" fill="#0ACDC4"/>
<path opacity="0.3" d="M48.7129 10.7502L48.6065 11.3612C48.4355 12.3404 47.5638 12.9429 46.6754 12.8906L47.862 10.5117L48.7129 10.7502Z" fill="#422C4F"/>
<path d="M47.0552 12.005L47.9227 14.4865C47.9519 14.5681 47.8852 14.6518 47.7976 14.6413C47.149 14.5639 46.5755 14.1831 46.2481 13.6161L45.147 11.7017L47.0552 12.005Z" fill="#454F6B"/>
<path d="M47.9047 8.21406L47.4271 10.9319C47.3458 11.3964 46.8641 11.6726 46.424 11.5094L41.7129 9.76025V6.37705C41.7129 2.90179 44.5221 0.0834961 47.9861 0.0834961C51.3875 0.0834961 54.1528 2.79926 54.2529 6.18665H50.3114C49.1268 6.18665 48.1112 7.04239 47.9047 8.21406Z" fill="#F84671"/>
<path d="M46.4236 11.5093C46.8637 11.6725 47.3454 11.3963 47.4268 10.9318L47.9043 8.21394C48.1108 7.04226 49.1264 6.18652 50.3131 6.18652H54.2546C54.2567 6.24929 54.2588 6.31206 54.2588 6.37692V6.95857H50.5216C49.6082 6.95857 48.8282 7.61555 48.6697 8.51731L48.1942 11.2143C48.0253 12.1767 47.0013 12.727 46.1066 12.3336L42.1609 10.597C41.8877 10.4757 41.7104 10.2058 41.7104 9.90658V9.75803L46.4236 11.5093Z" fill="#C8274E"/>
<path d="M46.8089 33.5032L45.6556 28.442L47.3115 19.3406C47.5096 18.2568 46.9945 17.1688 46.0331 16.6353L42.2271 14.5263C41.7287 14.2501 41.1114 14.3129 40.6797 14.6853C37.5431 17.3822 35.5807 21.2006 35.2116 25.3287L34.4942 33.3253C34.4149 34.1999 35.1031 34.9552 35.979 34.9552H45.6556C46.4168 34.9552 46.9799 34.2459 46.8089 33.5032Z" fill="#5DABFF"/>
<path d="M41.0697 18.3091L41.0385 18.4325C40.6381 19.9787 40.9321 21.6232 41.8414 22.9351L45.6578 28.442L46.4336 24.1758L41.0697 18.3091Z" fill="#5297F4"/>
<path d="M46.3906 15.6079L47.4375 16.1498L46.3906 17.2838L46.034 16.6352L46.3906 15.6079Z" fill="#5DABFF"/>
<path d="M47.4371 16.1499L47.6748 18.0853L46.5966 17.06L47.4371 16.1499Z" fill="#5297F4"/>
<path d="M41.61 14.3548L42.7195 13.3735L46.6777 15.5453L46.1376 17.8405L41.61 14.3548Z" fill="#6BC5FF"/>
<path d="M63.9604 30.4673H66.9134C67.464 30.4673 67.9082 30.915 67.9082 31.4653V33.317C67.9082 33.8693 67.4619 34.315 66.9134 34.315H64.5235V33.5785C63.804 33.5785 63.1116 33.2919 62.6027 32.7813L62.244 32.4215L63.9604 30.4673Z" fill="#F5B087"/>
<path d="M63.96 30.4672L62.2436 32.4214L54.8714 30.7015L55.8912 27.9648L63.96 30.4672Z" fill="#F5B087"/>
<path d="M55.8917 27.9648L56.2504 28.0778L56.3672 31.0509L54.8719 30.7015L55.8917 27.9648Z" fill="#E09069"/>
<path d="M41.7749 17.3821C42.7467 16.6163 44.1481 16.7544 44.9552 17.6917L52.6027 26.5922L53.9854 27.0588L52.7007 30.5048L51.9749 30.3479C50.8279 30.0989 49.781 29.5089 48.9718 28.6552L41.5267 20.8071C40.5861 19.8154 40.7008 18.2273 41.7749 17.3821Z" fill="#5DABFF"/>
<path d="M52.6593 30.6157L52.701 30.5069L53.9857 27.0609L54.1129 26.7199C54.1859 26.5253 54.4028 26.4249 54.5967 26.4981L55.8605 26.973C56.0545 27.0463 56.1546 27.2639 56.0816 27.4584L55.9794 27.7346L54.7782 30.9567L54.6301 31.3542C54.5571 31.5488 54.3402 31.6492 54.1463 31.576L52.8825 31.1011C52.6843 31.0278 52.5863 30.8102 52.6593 30.6157Z" fill="#5297F4"/>
<path d="M44.4712 18.0622C43.7601 17.2336 42.5735 17.0119 41.6121 17.5245C41.6642 17.4743 41.7184 17.4261 41.7768 17.3801C42.7486 16.6143 44.1501 16.7524 44.9572 17.6898L52.6046 26.5903L53.9873 27.0569L53.7808 27.6092L52.2292 27.0841L44.4712 18.0622Z" fill="#6BC5FF"/>
<path d="M63.5533 33.5742C63.3281 33.162 62.8151 33.0113 62.4042 33.2373L62.4022 33.2394C62.4188 33.2289 62.4334 33.2143 62.4522 33.2059L64.3458 32.1661C64.7567 31.9401 65.2697 32.0907 65.4949 32.5029C65.7202 32.9151 65.57 33.4298 65.1592 33.6558L63.2697 34.6956C63.6368 34.455 63.7681 33.9675 63.5533 33.5742Z" fill="#422C4F"/>
<path d="M62.8593 34.8003C62.5611 34.8003 62.2691 34.6413 62.1169 34.3588C61.9021 33.9655 62.0335 33.4801 62.4026 33.2394L62.4047 33.2374C62.8155 33.0114 63.3285 33.162 63.5538 33.5742C63.7686 33.9676 63.6372 34.453 63.2681 34.6936L63.266 34.6957C63.1346 34.7668 62.9969 34.8003 62.8593 34.8003Z" fill="#495375"/>
</g>
<defs>
<clipPath id="clip0_523_2901">
<rect width="89" height="79" fill="white" transform="matrix(-1 0 0 1 89.9102 0.0834961)"/>
</clipPath>
</defs>
</svg>
