<svg width="57" height="57" viewBox="0 0 57 57" fill="none" xmlns="http://www.w3.org/2000/svg">
<rect x="0.594727" y="0.62915" width="56" height="56" rx="28" fill="#B5C1FF"/>
<rect x="7.03906" y="14.2583" width="43.1125" height="28.7417" rx="2" fill="#454F6B"/>
<path d="M8.75977 23.8389L48.3544 23.8389" stroke="white" stroke-width="3" stroke-linecap="square"/>
<rect x="10.332" y="34.1729" width="14.3708" height="3.59271" rx="0.6" fill="white"/>
<path d="M43.595 29.0005C48.5657 29.0005 52.5952 24.9709 52.5952 20.0002C52.5952 15.0295 48.5657 11 43.595 11C38.6243 11 34.5947 15.0295 34.5947 20.0002C34.5947 24.9709 38.6243 29.0005 43.595 29.0005Z" fill="#FFD183"/>
<path d="M43.5981 13.3389L44.5451 13.3456C45.0504 13.349 45.3978 13.6806 45.381 14.183C45.3466 15.1879 45.2949 16.1927 45.2509 17.1976C45.2231 17.8283 45.1958 18.459 45.1691 19.0896C45.1313 19.982 45.0968 20.8749 45.0552 21.7693C45.0413 22.0597 44.8776 22.2052 44.5795 22.21C44.2518 22.2152 43.9245 22.2152 43.5967 22.2176C43.288 22.1813 42.9784 22.2076 42.6693 22.2023C42.2865 22.1961 42.1612 22.0865 42.143 21.7085C42.0879 20.5357 42.0387 19.3638 41.9865 18.19C41.9313 16.958 41.876 15.7257 41.8205 14.4931C41.8133 14.3266 41.7889 14.1581 41.8205 13.994C41.898 13.6112 42.2057 13.3614 42.6138 13.3518C42.9445 13.3418 43.2718 13.3418 43.5981 13.3389Z" fill="white"/>
<path d="M43.5984 23.7771C44.0047 23.801 44.3664 23.9307 44.643 24.2408C45.033 24.6781 45.1392 25.1825 44.9301 25.7299C44.7148 26.2931 44.2769 26.5821 43.686 26.652L43.5974 26.6611C43.1529 26.6218 42.7615 26.4697 42.4811 26.1074C42.1356 25.6591 42.0624 25.1624 42.2897 24.6456C42.517 24.1288 42.928 23.8465 43.4927 23.7924C43.5305 23.7891 43.5654 23.7824 43.5984 23.7771Z" fill="white"/>
</svg>
