<svg width="18" height="18" viewBox="0 0 18 18" fill="none" xmlns="http://www.w3.org/2000/svg">
<g clip-path="url(#clip0_399_2704)">
<path d="M9.00024 18.0005C13.9709 18.0005 18.0005 13.9709 18.0005 9.00024C18.0005 4.02954 13.9709 0 9.00024 0C4.02954 0 0 4.02954 0 9.00024C0 13.9709 4.02954 18.0005 9.00024 18.0005Z" fill="white"/>
<path d="M9.00339 2.33936L9.95035 2.34605C10.4557 2.3494 10.8031 2.68101 10.7863 3.18344C10.7519 4.18831 10.7002 5.19317 10.6561 6.19804C10.6284 6.82871 10.6011 7.45938 10.5743 8.09005C10.5365 8.98247 10.5021 9.87536 10.4604 10.7697C10.4466 11.0601 10.2829 11.2056 9.98481 11.2104C9.65703 11.2157 9.32973 11.2157 9.00195 11.2181C8.69331 11.1817 8.38372 11.208 8.07461 11.2027C7.6918 11.1965 7.56643 11.0869 7.54825 10.7089C7.49322 9.5361 7.44393 8.36424 7.39178 7.19046C7.33659 5.95847 7.28124 4.72615 7.22573 3.49351C7.21855 3.32699 7.19415 3.15856 7.22573 2.99443C7.30325 2.61163 7.61093 2.36184 8.0191 2.35227C8.34975 2.34223 8.67705 2.34223 9.00339 2.33936Z" fill="#6A8ADB"/>
<path d="M9.00367 12.7769C9.40993 12.8008 9.77168 12.9305 10.0483 13.2405C10.4382 13.6779 10.5445 14.1822 10.3354 14.7296C10.12 15.2928 9.6822 15.5819 9.09124 15.6517L9.00272 15.6608C8.55818 15.6216 8.16677 15.4694 7.88636 15.1072C7.54088 14.6588 7.46767 14.1621 7.69496 13.6453C7.92225 13.1286 8.33329 12.8462 8.89792 12.7922C8.93573 12.7888 8.97066 12.7821 9.00367 12.7769Z" fill="#6A8ADB"/>
</g>
<defs>
<clipPath id="clip0_399_2704">
<rect width="18" height="18" fill="white"/>
</clipPath>
</defs>
</svg>
