<svg width="75" height="70" viewBox="0 0 75 70" fill="none" xmlns="http://www.w3.org/2000/svg">
<g clip-path="url(#clip0_150_19435)">
<rect x="0.5" width="71.2407" height="70" rx="35" fill="#FFDB7C"/>
<g clip-path="url(#clip1_150_19435)">
<path d="M55.3562 40.7937C55.3562 43.7795 54.1054 46.7466 50.7593 47.9322C47.4132 49.1177 28.7628 49.9897 23.1026 48.9045C17.4487 47.8255 16.498 44.1245 16.5668 41.1073C16.8358 29.6593 18.5307 22.3264 19.669 18.6379C19.694 18.5501 19.7128 18.4686 19.744 18.3808C19.9817 17.5151 20.2882 16.6745 20.6572 15.8653C20.6822 15.8089 20.7009 15.7712 20.7009 15.7712H20.7072C23.1902 10.4205 28.4813 6.41842 34.8295 6.18632H34.8357C34.8357 6.18632 50.7593 4.46128 53.6613 22.4393C54.7433 29.2579 55.3562 36.5156 55.3562 40.7937Z" fill="#323232"/>
<path d="M23.6852 28.2541C23.6852 28.2541 21.3774 26.4538 19.6887 28.5929C17.1244 31.8359 21.6088 37.7136 25.5115 34.6901L23.6852 28.2541Z" fill="#F5B087"/>
<path d="M21.3516 30.431C21.3516 30.431 22.64 30.0233 24.0347 32.752" stroke="#323232" stroke-width="0.343395" stroke-miterlimit="10" stroke-linecap="round" stroke-linejoin="round"/>
<path d="M48.4278 28.2541C48.4278 28.2541 50.7357 26.4538 52.4244 28.5929C54.9886 31.8359 50.5043 37.7136 46.6016 34.6901L48.4278 28.2541Z" fill="#F5B087"/>
<path d="M50.7603 30.431C50.7603 30.431 49.4719 30.0233 48.0771 32.752" stroke="#323232" stroke-width="0.343395" stroke-miterlimit="10" stroke-linecap="round" stroke-linejoin="round"/>
<path d="M31.4904 41.3459L29.3389 56.6391H42.9733L40.3715 41.1765L31.4904 41.3459Z" fill="#F5B087"/>
<path d="M32.2158 42.3745C32.541 42.5627 41.5723 48.3525 41.5723 48.3525L40.2151 40.6746L32.2158 42.3745Z" fill="#E09069"/>
<path d="M23.1094 21.0279C23.1094 21.0279 23.1844 43.3342 35.6306 43.3342C50.2532 43.3342 48.7209 21.0405 48.7209 21.0405C48.7209 21.0405 48.6396 11.0039 36.0809 11.0039C24.5666 11.0039 23.1094 21.0279 23.1094 21.0279Z" fill="#F5B087"/>
<path d="M30.6212 29.2642C31.2119 29.2642 31.6907 28.784 31.6907 28.1916C31.6907 27.5991 31.2119 27.1189 30.6212 27.1189C30.0306 27.1189 29.5518 27.5991 29.5518 28.1916C29.5518 28.784 30.0306 29.2642 30.6212 29.2642Z" fill="#323232"/>
<path d="M41.2912 29.2642C41.8818 29.2642 42.3607 28.784 42.3607 28.1916C42.3607 27.5991 41.8818 27.1189 41.2912 27.1189C40.7005 27.1189 40.2217 27.5991 40.2217 28.1916C40.2217 28.784 40.7005 29.2642 41.2912 29.2642Z" fill="#323232"/>
<path d="M35.2051 30.575V32.6199L36.4685 32.6387" stroke="#323232" stroke-width="0.343395" stroke-miterlimit="10" stroke-linecap="round" stroke-linejoin="round"/>
<path d="M38.4765 22.1256C38.4765 22.1256 38.1701 23.0226 39.9276 23.0414C41.266 23.0539 42.8984 23.33 43.6676 23.4617C44.1055 23.537 44.5745 23.399 44.7809 23.148C44.9498 22.941 44.9123 22.6964 44.6746 22.527C44.1993 22.182 42.4418 21.3854 40.8157 21.354C38.733 21.3101 38.4765 22.1256 38.4765 22.1256Z" fill="#323232"/>
<path d="M33.0979 22.1444C33.0979 22.1444 33.4043 23.0414 31.6469 23.0603C30.3084 23.0728 28.6761 23.3488 27.9068 23.4805C27.469 23.5558 26.9999 23.4178 26.7935 23.1669C26.6246 22.9599 26.6622 22.7152 26.8998 22.5459C27.3752 22.2009 29.1326 21.4042 30.7588 21.3729C32.8477 21.3352 33.0979 22.1444 33.0979 22.1444Z" fill="#323232"/>
<path d="M32.6035 35.7002H39.2644C39.2644 35.7002 38.2512 37.8769 35.6932 37.8769C33.1351 37.8769 32.6035 35.7002 32.6035 35.7002Z" fill="white"/>
<path d="M34.5363 27.7837C34.5363 30.6629 32.2097 32.9964 29.339 32.9964C26.4682 32.9964 24.1416 30.6629 24.1416 27.7837C24.1479 24.2082 34.5363 24.2082 34.5363 27.7837Z" stroke="white" stroke-width="1.06078" stroke-miterlimit="10"/>
<path d="M47.5265 27.7837C47.5265 30.6629 45.1999 32.9964 42.3292 32.9964C39.4585 32.9964 37.1318 30.6629 37.1318 27.7837C37.1318 24.2082 47.5265 24.2082 47.5265 27.7837Z" stroke="white" stroke-width="1.06078" stroke-miterlimit="10"/>
<path d="M37.1317 27.7835C35.9371 26.7171 34.5361 27.7835 34.5361 27.7835" stroke="white" stroke-width="1.06078" stroke-miterlimit="10"/>
<path d="M21.9775 20.7396C21.9775 20.7396 40.7781 22.7093 41.2909 10.4145C41.2909 10.4145 29.2138 3.1819 21.9775 20.7396Z" fill="#323232"/>
<path d="M49.4086 20.7396C49.4086 20.7396 38.3634 21.7495 37.8506 9.45473C37.8506 9.45473 42.1661 3.18187 49.4086 20.7396Z" fill="#323232"/>
<path d="M15.3721 56.5771C15.3721 56.5771 5.82171 59.2494 3.62019 79.0465C1.33735 99.5462 -3.80371 141.11 -3.80371 141.11L10.0684 141.48L20.4756 72.5416L15.3721 56.5771Z" fill="white"/>
<path d="M26.6426 51.8157L22.0332 60.4785V118.54H50.0651V57.8439L45.5433 51.8157H26.6426Z" fill="#8BD5EE"/>
<path d="M42.1901 49.7271L36.5737 55.4103L29.9941 49.7961L42.1901 49.7271Z" fill="#F5B087"/>
<path d="M29.9949 49.7961L26.6426 51.816L31.6023 60.4788L36.5745 55.4103L29.9949 49.7961Z" fill="#AFE2FD"/>
<path d="M42.1908 49.7271L45.5431 51.8159L41.5654 60.4787L36.5869 55.4103L42.1908 49.7271Z" fill="#AFE2FD"/>
<path d="M26.6436 51.8159L15.3732 56.577L13.6846 169.031H30.3837L26.6436 51.8159Z" fill="white"/>
<path d="M26.3871 52.0981L18.7256 60.4787L24.0543 64.0291L20.4831 68.1943L28.2384 101.861" stroke="#CFEAE7" stroke-width="0.762154" stroke-miterlimit="10" stroke-linecap="round" stroke-linejoin="round"/>
<path d="M45.5431 51.8159L56.8197 56.577L60.0907 169.031H43.3916L45.5431 51.8159Z" fill="white"/>
<path d="M45.9372 52.0981L53.5988 60.4787L48.2701 64.0291L51.8413 68.1943L44.0859 101.861" stroke="#CFEAE7" stroke-width="0.762154" stroke-miterlimit="10" stroke-linecap="round" stroke-linejoin="round"/>
<path d="M55.1128 55.9875C55.1128 55.9875 64.9822 56.8908 70.7111 75.9603C74.1823 87.5212 76.215 96.9117 77.297 102.714C77.9662 106.277 76.6965 111.785 73.1628 112.55C69.8605 113.265 65.5138 109.313 64.4193 106.108L52.9551 72.6169L55.1128 55.9875Z" fill="white"/>
</g>
</g>
<path d="M71.4689 60.556L71.4669 60.5557L68.4603 60.2201C68.4602 60.2201 68.4601 60.2201 68.46 60.2201C67.6044 60.1242 66.7584 60.4121 66.1503 61.0065L64.2054 62.908C61.1702 61.3277 58.6675 58.892 57.0497 55.9213L58.9964 54.018C59.6051 53.4229 59.9044 52.5893 59.8049 51.7419L59.8049 51.7418L59.4616 48.8252L59.4614 48.8235C59.2908 47.4197 58.0848 46.3752 56.6543 46.3752H54.6063C53.0343 46.3752 51.6839 47.6575 51.785 49.2543L51.7851 49.2544C52.4275 59.3752 60.7034 67.443 71.0219 68.0698L71.022 68.0698C72.6274 68.167 73.9546 66.8646 73.9546 65.3013V63.3011C73.9675 61.8877 72.8814 60.72 71.4689 60.556Z" fill="#323232" stroke="#323232" stroke-width="0.909171"/>
<defs>
<clipPath id="clip0_150_19435">
<rect x="0.5" width="71.2407" height="70" rx="35" fill="white"/>
</clipPath>
<clipPath id="clip1_150_19435">
<rect width="81.7442" height="164.349" fill="white" transform="translate(-3.80273 4.68188)"/>
</clipPath>
</defs>
</svg>
