<svg width="231" height="231" viewBox="0 0 231 231" fill="none" xmlns="http://www.w3.org/2000/svg">
<rect width="231" height="231" rx="4" fill="#D3F0E3"/>
<g style="mix-blend-mode:luminosity">
<path d="M183.949 186C183.424 186 182.899 185.8 182.499 185.399L146.139 149.04C145.338 148.239 145.338 146.941 146.139 146.14C146.94 145.339 148.239 145.339 149.04 146.14L185.399 182.499C186.2 183.3 186.2 184.599 185.399 185.399C184.999 185.8 184.474 186 183.949 186Z" fill="#78B9EB"/>
<path d="M133.696 143.287L144.511 154.102C145.631 155.221 147.447 155.221 148.566 154.102L154.102 148.566C155.222 147.446 155.222 145.631 154.102 144.511L143.287 133.696L133.696 143.287Z" fill="#5A8BB0"/>
<path d="M133.696 143.286L140.667 150.256L142.098 148.825C143.661 147.262 146.195 147.262 147.758 148.825L148.773 149.84C149.892 150.959 149.894 152.774 148.773 153.895L154.103 148.565C155.222 147.446 155.222 145.63 154.103 144.511L143.286 133.694L133.696 143.286Z" fill="#8DCAFC"/>
<path d="M65.3354 89.2051L89.1903 65.3505L121.853 98.0125L97.9979 121.867L65.3354 89.2051Z" fill="#78B9EB"/>
<path d="M121.868 98.0081L89.2032 65.3433L89.2018 65.3446L89.2005 65.3433L65.3428 89.2006L70.5217 94.3795L85.3472 79.5543C86.9156 77.9859 89.4589 77.9859 91.0273 79.5543L115.675 104.201L121.868 98.0081Z" fill="#78B9EB"/>
<path d="M119.467 95.6074L149.252 125.392C151.49 127.63 151.49 131.263 149.252 133.501L133.501 149.251C131.263 151.49 127.63 151.49 125.392 149.251L95.6069 119.467L119.467 95.6074Z" fill="#FB4A59"/>
<path d="M95.6069 119.467L102.576 126.436C105.105 126.004 107.527 124.814 109.476 122.866L118.844 113.498C120.536 111.806 123.279 111.806 124.971 113.498L143.058 131.585C145.297 133.824 145.297 137.456 143.058 139.695L149.252 133.501C151.491 131.262 151.491 127.631 149.252 125.392L119.467 95.6074L95.6069 119.467Z" fill="#F82F40"/>
<path d="M74.8379 81.1001L81.0905 74.8475L108.083 101.84L101.831 108.092L74.8379 81.1001Z" fill="#A9D8FC"/>
<path d="M74.8379 81.0981L81.0905 74.8456L85.5689 79.3239L79.3162 85.5764L74.8379 81.0981Z" fill="#8DCAFC"/>
<path d="M54.2925 60.5498L60.5453 54.2971L80.392 74.1435L74.1392 80.3962L54.2925 60.5498Z" fill="#5A8BB0"/>
<path d="M54.2925 60.5498L60.5453 54.2971L65.8617 59.6134L59.6089 65.8661L54.2925 60.5498Z" fill="#5A8BB0"/>
<path d="M48.051 68.8437C47.526 68.8437 47.0013 68.6435 46.6007 68.2429C45.7998 67.442 45.7998 66.1435 46.6007 65.3429L65.3431 46.6007C66.1443 45.7998 67.4426 45.7998 68.2435 46.6007C69.0444 47.4016 69.0444 48.7001 68.2435 49.5007L49.5013 68.2429C49.1007 68.6435 48.5757 68.8437 48.051 68.8437Z" fill="#78B9EB"/>
<path d="M61.0378 95.5544C60.5128 95.5544 59.9881 95.3542 59.5875 94.9536C58.7866 94.1527 58.7866 92.8542 59.5875 92.0535L92.0548 59.587C92.8559 58.7861 94.1542 58.7861 94.9551 59.587C95.7561 60.3879 95.7561 61.6865 94.9551 62.4871L62.4882 94.9536C62.0876 95.3542 61.5626 95.5544 61.0378 95.5544Z" fill="#A9D8FC"/>
<path d="M119.027 95.1666C120.473 96.6122 121.196 98.5071 121.194 100.402C121.194 102.295 120.473 104.188 119.027 105.634L105.636 119.024C102.745 121.916 98.0583 121.918 95.167 119.026C94.5777 118.437 94.2837 117.667 94.2857 116.897C94.2857 116.126 94.5793 115.356 95.1689 114.767L114.769 95.1668C115.944 93.9916 117.85 93.9897 119.027 95.1666Z" fill="#688D97"/>
<path d="M119.028 95.1666C120.474 96.6122 121.198 98.5072 121.196 100.402C121.196 102.295 120.474 104.188 119.028 105.634L118.068 106.594L110.706 99.2312L114.77 95.1668C115.945 93.9916 117.851 93.9897 119.028 95.1666Z" fill="#557983"/>
</g>
</svg>
