<svg width="18" height="18" viewBox="0 0 18 18" fill="none" xmlns="http://www.w3.org/2000/svg">
<g clip-path="url(#clip0_127_5214)">
<path d="M9.00024 18.0005C13.9709 18.0005 18.0005 13.9709 18.0005 9.00024C18.0005 4.02954 13.9709 0 9.00024 0C4.02954 0 0 4.02954 0 9.00024C0 13.9709 4.02954 18.0005 9.00024 18.0005Z" fill="white"/>
<path d="M9.00339 2.33887L9.95035 2.34557C10.4557 2.34892 10.8031 2.68052 10.7863 3.18295C10.7519 4.18782 10.7002 5.19268 10.6561 6.19755C10.6284 6.82822 10.6011 7.45889 10.5743 8.08957C10.5365 8.98198 10.5021 9.87488 10.4604 10.7692C10.4466 11.0597 10.2829 11.2051 9.98481 11.2099C9.65703 11.2152 9.32973 11.2152 9.00195 11.2176C8.69331 11.1812 8.38372 11.2075 8.07461 11.2023C7.6918 11.196 7.56643 11.0865 7.54825 10.7084C7.49322 9.53561 7.44393 8.36375 7.39178 7.18997C7.33659 5.95798 7.28124 4.72566 7.22573 3.49303C7.21855 3.32651 7.19415 3.15807 7.22573 2.99394C7.30325 2.61114 7.61093 2.36136 8.0191 2.35179C8.34975 2.34174 8.67705 2.34174 9.00339 2.33887Z" fill="#FCAF55"/>
<path d="M9.00367 12.7771C9.40993 12.801 9.77168 12.9307 10.0483 13.2408C10.4382 13.6781 10.5445 14.1825 10.3354 14.7299C10.12 15.2931 9.6822 15.5821 9.09124 15.652L9.00272 15.6611C8.55818 15.6218 8.16677 15.4697 7.88636 15.1074C7.54088 14.6591 7.46767 14.1624 7.69496 13.6456C7.92225 13.1288 8.33329 12.8465 8.89792 12.7924C8.93573 12.7891 8.97066 12.7824 9.00367 12.7771Z" fill="#FCAF55"/>
</g>
<defs>
<clipPath id="clip0_127_5214">
<rect width="18" height="18" fill="white"/>
</clipPath>
</defs>
</svg>
