<svg width="40" height="40" viewBox="0 0 40 40" fill="none" xmlns="http://www.w3.org/2000/svg">
<g clip-path="url(#clip0)">
<path d="M24.8337 24.9781L24.6671 31.9781L20.0004 35.1449L15.417 32.0615L15.167 24.9781C15.167 24.9781 16.667 23.5615 16.2504 22.1448H23.5837C23.3337 23.5615 24.8337 24.9781 24.8337 24.9781Z" fill="#F8B64C"/>
<path d="M34.9168 36.8949V34.4783C34.9168 32.1449 33.6668 29.9783 31.6668 28.8116L28.2501 26.8949L24.8335 24.9783L21.8335 32.2283L20.6668 27.3116L21.5002 26.395H18.5002L19.3336 27.3116L18.1669 32.2283L15.2503 24.9783L11.8336 26.8949L8.41699 28.8116C6.41699 29.9782 5.16699 32.1449 5.16699 34.4782V36.8948H34.9168V36.8949Z" fill="#F2F2F2"/>
<path d="M15.0749 15.6305C14.7239 14.7796 13.9564 14.2891 13.3608 14.5348C12.7652 14.7805 12.567 15.6695 12.9181 16.5204C13.2691 17.3713 14.0365 17.8618 14.6322 17.6161C15.2278 17.3703 15.426 16.4814 15.0749 15.6305Z" fill="#F8B64C"/>
<path d="M24.8559 15.6324C24.5048 16.4833 24.7031 17.3723 25.2987 17.618C25.8943 17.8638 26.6617 17.3732 27.0128 16.5223C27.3638 15.6715 27.1656 14.7825 26.57 14.5367C25.9744 14.291 25.207 14.7815 24.8559 15.6324Z" fill="#F8B64C"/>
<path d="M26.6664 13.3113C26.6664 13.6446 26.6664 14.0613 26.5831 14.4779C26.0831 18.3945 23.3331 24.7279 19.9997 24.7279C16.6664 24.7279 13.9164 18.3945 13.4164 14.3945C13.333 14.0612 13.333 13.6445 13.333 13.3112C13.333 9.64453 16.333 6.64453 19.9996 6.64453C23.6663 6.64453 26.6664 9.64461 26.6664 13.3113Z" fill="#FFD15C"/>
<path d="M13.5837 15.6451C13.417 14.7284 13.5003 13.4784 14.0837 12.8117C14.0837 12.8117 13.5837 8.56171 16.667 8.81171C16.667 8.81171 19.167 9.64507 23.8337 8.81171C23.8337 8.81171 25.7503 8.72835 25.417 10.7283C25.417 10.7283 24.917 12.5617 25.917 12.9783L26.3337 15.5617L26.7503 13.6451C27.5003 10.1451 26.6669 6.64507 23.4169 5.06171C23.3336 5.06171 23.3336 5.06171 23.3336 5.06171C23.7502 4.47835 24.5836 4.72835 24.5836 4.72835C19.0836 1.22835 15.4169 4.47835 15.4169 4.47835C11.5003 8.06171 12.7503 12.2283 12.7503 12.2283C12.3337 13.7283 13.5837 15.6451 13.5837 15.6451Z" fill="#40596B"/>
<path d="M7.75 27.8116L11.1666 25.895L14.25 24.145V24.0616C14.5834 23.645 14.8334 23.145 15.0834 22.645C14.3334 21.4783 13.6667 20.145 13.1667 18.645C12.5834 18.3116 12.0834 17.7283 11.8334 17.0616C11.5 16.3116 11.5 15.4782 11.75 14.7282C11.4166 13.8116 11.25 12.9782 11.4166 12.2282C11.3333 11.7282 11.1666 10.6449 11.3333 9.39489C9.16664 9.31153 7.91664 10.4782 7.91664 10.4782C4.91664 13.2282 5.83328 16.3949 5.83328 16.3949C5.66664 17.0615 5.91664 17.8115 6.24992 18.3949C5.99992 18.6449 5.91656 19.2282 6.16656 19.7282C6.3332 20.2282 6.74992 20.4782 7.0832 20.5616C7.49984 21.8116 8.0832 23.0616 8.74984 24.0616C8.99984 25.145 7.91648 26.2282 7.91648 26.2282L5.24984 27.7282L2.5 29.145C0.916641 30.0616 0 31.645 0 33.4783V34.3117H3.83336C3.91664 31.645 5.41664 29.145 7.75 27.8116Z" fill="#ACB3BA"/>
<path d="M37.5005 29.1449L34.9171 27.6449L32.2505 26.1449C32.2505 26.1449 31.1671 25.0615 31.4171 23.9782C32.0838 22.9782 32.6671 21.7282 33.0838 20.4782C33.4171 20.3949 33.8338 20.0616 34.0004 19.6449C34.2504 18.9782 34.0838 18.3115 33.6671 18.1449L33.8337 17.4782C34.4171 14.8116 33.7503 12.0616 31.3337 10.8949C31.2504 10.8115 31.1671 10.8115 31.1671 10.8115C31.5004 10.3949 32.0837 10.5615 32.0837 10.5615C30.5837 9.56152 29.2504 9.31152 28.0837 9.31152C28.4171 10.7282 28.3337 12.3115 28.0004 13.9782V14.1448C28.5004 14.8948 28.667 15.9782 28.167 16.9782C27.917 17.6448 27.417 18.2282 26.8336 18.5615C26.3336 20.0615 25.667 21.3949 24.917 22.5615C25.167 23.0615 25.417 23.5615 25.7504 23.9782V24.0615L32.167 27.7282C34.5836 29.0615 36.0004 31.5615 36.0836 34.3115H40.0005V33.4782C40.0005 31.7282 39.0005 30.0615 37.5005 29.1449Z" fill="#ACB3BA"/>
<path d="M30.25 32.5616H28.6666V30.9783H27.5834V32.5616H26V33.645H27.5834V35.2283H28.6666V33.645H30.25V32.5616Z" fill="#FF7058"/>
</g>
<defs>
<clipPath id="clip0">
<rect width="40" height="40" fill="white"/>
</clipPath>
</defs>
</svg>
