<svg width="76" height="59" viewBox="0 0 76 59" fill="none" xmlns="http://www.w3.org/2000/svg">
<path d="M36.1905 0H76L39.8095 59H0L36.1905 0Z" fill="url(#paint0_linear_429_5851)" fill-opacity="0.7"/>
<defs>
<linearGradient id="paint0_linear_429_5851" x1="22.619" y1="26.8971" x2="45.5915" y2="41.6387" gradientUnits="userSpaceOnUse">
<stop stop-color="white" stop-opacity="0.72"/>
<stop offset="1" stop-color="#C4C4C4" stop-opacity="0.36"/>
</linearGradient>
</defs>
</svg>
