<svg width="20" height="20" viewBox="0 0 20 20" fill="none" xmlns="http://www.w3.org/2000/svg">
<circle cx="10" cy="10" r="9.5" stroke="#003055" stroke-opacity="0.2"/>
<path d="M8.18164 6.13635L12.0453 9.99999L8.18164 13.8636" stroke="#003055" stroke-linecap="round" stroke-linejoin="round"/>
</svg>
