<svg width="17" height="17" viewBox="0 0 17 17" fill="none" xmlns="http://www.w3.org/2000/svg">
<path fill-rule="evenodd" clip-rule="evenodd" d="M3.16748 11.0346C0.991923 8.86375 0.991923 5.33025 3.16748 3.15941C4.25526 2.07398 5.68444 1.53076 7.11362 1.53076C8.54281 1.53076 9.97199 2.07398 11.0587 3.15941C13.2353 5.33025 13.2353 8.86375 11.0587 11.0346C8.88319 13.2054 5.34304 13.2054 3.16748 11.0346ZM16.7775 15.6946L12.6561 11.5483C14.9065 8.76266 14.7373 4.6624 12.1455 2.07621C9.37119 -0.692072 4.85707 -0.692072 2.08072 2.07621C-0.693574 4.8445 -0.693574 9.34987 2.08072 12.1192C3.46889 13.5033 5.29074 14.1949 7.11362 14.1949C8.69351 14.1949 10.2734 13.6731 11.5693 12.6317L15.6867 16.7729C15.8374 16.9243 16.0342 17 16.2321 17C16.4279 17 16.6237 16.9263 16.7734 16.778C17.0738 16.4793 17.0759 15.9944 16.7775 15.6946Z" fill="#096EB5"/>
</svg>
