<svg width="20" height="24" viewBox="0 0 20 24" fill="none" xmlns="http://www.w3.org/2000/svg">
<path d="M10 1.92514C7.85193 1.92514 6.11138 3.65744 6.11138 5.79534C6.11138 7.93324 7.85193 9.66554 10 9.66554C12.1481 9.66554 13.8886 7.93324 13.8886 5.79534C13.8886 3.65744 12.1465 1.92514 10 1.92514Z" fill="#0071BD"/>
<path d="M10 12.8345C5.93095 12.8345 2.5945 15.943 2.25231 19.903C2.2212 20.2637 2.50895 20.5749 2.87293 20.5749H17.1271C17.4911 20.5749 17.7788 20.2637 17.7477 19.903C17.4055 15.943 14.066 12.8345 10 12.8345Z" fill="#0071BD"/>
</svg>
