<svg width="40" height="40" viewBox="0 0 40 40" fill="none" xmlns="http://www.w3.org/2000/svg">
<g clip-path="url(#clip0)">
<path d="M34.0194 5.81283C30.2757 2.06656 25.2977 0.00228569 19.994 0C9.06493 0 0.170839 8.89126 0.166463 19.8199C0.16519 23.3133 1.07796 26.7233 2.81289 29.7292L0 40.0001L10.5108 37.244C13.4067 38.8233 16.6674 39.6556 19.9855 39.6569H19.9939H19.994C30.9214 39.6569 39.8168 30.7641 39.8214 19.836C39.8232 14.5394 37.7626 9.55937 34.0194 5.81283ZM19.994 36.3092H19.9876C17.03 36.3077 14.1296 35.5136 11.5998 34.0125L10.9978 33.6556L4.76046 35.2909L6.42574 29.2118L6.03349 28.5885C4.38371 25.9654 3.51277 22.9339 3.51401 19.8212C3.51764 10.7376 10.9101 3.34778 20.0003 3.34778C24.4022 3.34961 28.5395 5.06545 31.6512 8.17924C34.7626 11.293 36.4749 15.4323 36.4736 19.8346C36.4697 28.9184 29.077 36.3092 19.994 36.3092Z" fill="#E0E0E0"/>
<path d="M0.910156 38.8605L3.59456 29.0588C1.93845 26.1902 1.06754 22.9357 1.06859 19.6026C1.07293 9.17335 9.56082 0.688477 19.9898 0.688477C25.0515 0.690762 29.8022 2.66063 33.374 6.23588C36.9467 9.81109 38.913 14.5633 38.9109 19.6173C38.9066 30.0468 30.4182 38.5324 19.9905 38.5324C19.9898 38.5324 19.9911 38.5324 19.9905 38.5324H19.9821C16.8155 38.5314 13.7041 37.7365 10.9407 36.2304L0.910156 38.8605Z" fill="url(#paint0_linear)"/>
<path fill-rule="evenodd" clip-rule="evenodd" d="M15.0997 11.4055C14.7329 10.5899 14.3467 10.5736 13.9977 10.5594C13.7122 10.5471 13.3855 10.5479 13.0592 10.5479C12.7327 10.5479 12.202 10.6706 11.7533 11.1606C11.3044 11.6507 10.0391 12.8353 10.0391 15.2447C10.0391 17.6544 11.7942 19.9827 12.0388 20.3097C12.2837 20.6363 15.4268 25.7387 20.4045 27.7017C24.5415 29.3331 25.3833 29.0086 26.2813 28.927C27.1792 28.8453 29.1787 27.7425 29.5869 26.5989C29.995 25.4556 29.995 24.4755 29.8726 24.2706C29.7501 24.0665 29.4236 23.9441 28.9338 23.6992C28.444 23.4543 26.0364 22.2694 25.5874 22.1061C25.1384 21.9428 24.8119 21.8612 24.4854 22.3515C24.1588 22.8413 23.2208 23.9441 22.9351 24.2706C22.6494 24.5979 22.3637 24.6387 21.8739 24.3938C21.3841 24.1482 19.8068 23.6316 17.9357 21.9632C16.4798 20.6653 15.4969 19.0622 15.2112 18.5719C14.9255 18.0822 15.1806 17.8169 15.4263 17.5727C15.6461 17.3533 15.916 17.001 16.1609 16.7151C16.4053 16.4291 16.4869 16.225 16.6502 15.8985C16.8135 15.5714 16.7318 15.2855 16.6094 15.0406C16.4869 14.7957 15.5352 12.3739 15.0997 11.4055Z" fill="white"/>
<path d="M33.8554 5.75003C30.1547 2.04676 25.2339 0.00622459 19.9911 0.00390625C9.18742 0.00390625 0.395442 8.79309 0.391099 19.5963C0.389826 23.0496 1.29212 26.4204 3.00713 29.3918L0.226562 39.5448L10.6167 36.8203C13.4794 38.3815 16.7026 39.2042 19.9827 39.2055H19.991H19.9911C30.793 39.2055 39.5862 30.4147 39.5908 19.6121C39.5926 14.3764 37.5557 9.45356 33.8554 5.75003ZM19.9911 35.8963H19.9847C17.0611 35.8948 14.194 35.1099 11.6933 33.626L11.0981 33.2732L4.93236 34.8897L6.57851 28.8804L6.19076 28.2643C4.55993 25.6712 3.69897 22.6746 3.70025 19.5976C3.70381 10.6183 11.0114 3.31332 19.9972 3.31332C24.3487 3.31512 28.4385 5.01126 31.5144 8.0893C34.5902 11.1673 36.2827 15.2591 36.2815 19.6109C36.2776 28.5903 28.9698 35.8963 19.9911 35.8963Z" fill="white"/>
</g>
<defs>
<linearGradient id="paint0_linear" x1="19.9106" y1="38.8605" x2="19.9106" y2="0.68854" gradientUnits="userSpaceOnUse">
<stop stop-color="#20B038"/>
<stop offset="1" stop-color="#60D66A"/>
</linearGradient>
<clipPath id="clip0">
<rect width="39.824" height="40" fill="white"/>
</clipPath>
</defs>
</svg>
